2015-09-21 21:23:49,913 - Created: 20 parsers.
2015-09-21 21:23:49,913 - Velocimacro : initialization starting.
2015-09-21 21:23:49,913 - Velocimacro : allowInline = true : VMs can be defined inline in templates
2015-09-21 21:23:49,913 - Velocimacro : allowInlineToOverride = false : VMs defined inline may NOT replace previous VM definitions
2015-09-21 21:23:49,913 - Velocimacro : allowInlineLocal = false : VMs defined inline will be  global in scope if allowed.
2015-09-21 21:23:49,913 - Velocimacro : messages on  : VM system will output logging messages
2015-09-21 21:23:49,913 - Velocimacro : autoload off  : VM system will not automatically reload global library macros
2015-09-21 21:23:49,913 - Velocimacro : initialization complete.
2015-09-21 21:23:49,913 - Velocity successfully started.
2015-09-21 21:23:52,197 - ResourceManager : found ru/ai/ccb/artifactGenerator/genutils/messages/named_script.vm with loader org.apache.velocity.runtime.resource.loader.ClasspathResourceLoader
2015-09-21 21:23:52,229 - ResourceManager : found ru/ai/ccb/artifactGenerator/genutils/messages/NamedMessages.vm with loader org.apache.velocity.runtime.resource.loader.ClasspathResourceLoader
2015-09-21 21:23:52,244 - ResourceManager : found ru/ai/ccb/artifactGenerator/batch/batch_script.vm with loader org.apache.velocity.runtime.resource.loader.ClasspathResourceLoader
2015-09-21 21:23:52,260 - ResourceManager : found ru/ai/ccb/artifactGenerator/features/feature_script.vm with loader org.apache.velocity.runtime.resource.loader.ClasspathResourceLoader
2015-09-21 21:24:49,305 - SimpleLog4JLogSystem initialized using logfile 'velocity.log'
2015-09-21 21:24:49,305 - ************************************************************** 
2015-09-21 21:24:49,305 - Starting Jakarta Velocity v1.4
2015-09-21 21:24:49,305 - RuntimeInstance initializing.
2015-09-21 21:24:49,305 - Default Properties File: org\apache\velocity\runtime\defaults\velocity.properties
2015-09-21 21:24:49,305 - Trying to use logger class org.apache.velocity.runtime.log.AvalonLogSystem
2015-09-21 21:24:49,305 - Couldn't find class org.apache.velocity.runtime.log.AvalonLogSystem or necessary supporting classes in classpath. Exception : java.lang.NoClassDefFoundError: org/apache/log/format/Formatter
2015-09-21 21:24:49,305 - Trying to use logger class org.apache.velocity.runtime.log.SimpleLog4JLogSystem
2015-09-21 21:24:49,305 - Using logger class org.apache.velocity.runtime.log.SimpleLog4JLogSystem
2015-09-21 21:24:49,321 - Default ResourceManager initializing. (class org.apache.velocity.runtime.resource.ResourceManagerImpl)
2015-09-21 21:24:49,321 - Resource Loader Instantiated: org.apache.velocity.runtime.resource.loader.ClasspathResourceLoader
2015-09-21 21:24:49,321 - ClasspathResourceLoader : initialization starting.
2015-09-21 21:24:49,321 - ClasspathResourceLoader : initialization complete.
2015-09-21 21:24:49,321 - ResourceCache : initialized. (class org.apache.velocity.runtime.resource.ResourceCacheImpl)
2015-09-21 21:24:49,321 - Default ResourceManager initialization complete.
2015-09-21 21:24:49,321 - Loaded System Directive: org.apache.velocity.runtime.directive.Literal
2015-09-21 21:24:49,321 - Loaded System Directive: org.apache.velocity.runtime.directive.Macro
2015-09-21 21:24:49,321 - Loaded System Directive: org.apache.velocity.runtime.directive.Parse
2015-09-21 21:24:49,321 - Loaded System Directive: org.apache.velocity.runtime.directive.Include
2015-09-21 21:24:49,321 - Loaded System Directive: org.apache.velocity.runtime.directive.Foreach
2015-09-21 21:24:49,352 - Created: 20 parsers.
2015-09-21 21:24:49,367 - Velocimacro : initialization starting.
2015-09-21 21:24:49,367 - Velocimacro : allowInline = true : VMs can be defined inline in templates
2015-09-21 21:24:49,367 - Velocimacro : allowInlineToOverride = false : VMs defined inline may NOT replace previous VM definitions
2015-09-21 21:24:49,367 - Velocimacro : allowInlineLocal = false : VMs defined inline will be  global in scope if allowed.
2015-09-21 21:24:49,367 - Velocimacro : messages on  : VM system will output logging messages
2015-09-21 21:24:49,367 - Velocimacro : autoload off  : VM system will not automatically reload global library macros
2015-09-21 21:24:49,367 - Velocimacro : initialization complete.
2015-09-21 21:24:49,367 - Velocity successfully started.
2015-09-21 21:24:51,461 - ResourceManager : found ru/ai/ccb/artifactGenerator/genutils/messages/named_script.vm with loader org.apache.velocity.runtime.resource.loader.ClasspathResourceLoader
2015-09-21 21:24:51,492 - ResourceManager : found ru/ai/ccb/artifactGenerator/genutils/messages/NamedMessages.vm with loader org.apache.velocity.runtime.resource.loader.ClasspathResourceLoader
2015-09-21 21:24:51,523 - ResourceManager : found ru/ai/ccb/artifactGenerator/batch/batch_script.vm with loader org.apache.velocity.runtime.resource.loader.ClasspathResourceLoader
2015-09-21 21:24:51,523 - ResourceManager : found ru/ai/ccb/artifactGenerator/features/feature_script.vm with loader org.apache.velocity.runtime.resource.loader.ClasspathResourceLoader
2015-09-22 02:09:56,080 - SimpleLog4JLogSystem initialized using logfile 'velocity.log'
2015-09-22 02:09:56,080 - ************************************************************** 
2015-09-22 02:09:56,080 - Starting Jakarta Velocity v1.4
2015-09-22 02:09:56,080 - RuntimeInstance initializing.
2015-09-22 02:09:56,080 - Default Properties File: org\apache\velocity\runtime\defaults\velocity.properties
2015-09-22 02:09:56,080 - Trying to use logger class org.apache.velocity.runtime.log.AvalonLogSystem
2015-09-22 02:09:56,080 - Couldn't find class org.apache.velocity.runtime.log.AvalonLogSystem or necessary supporting classes in classpath. Exception : java.lang.NoClassDefFoundError: org/apache/log/format/Formatter
2015-09-22 02:09:56,080 - Trying to use logger class org.apache.velocity.runtime.log.SimpleLog4JLogSystem
2015-09-22 02:09:56,080 - Using logger class org.apache.velocity.runtime.log.SimpleLog4JLogSystem
2015-09-22 02:09:56,080 - Default ResourceManager initializing. (class org.apache.velocity.runtime.resource.ResourceManagerImpl)
2015-09-22 02:09:56,080 - Resource Loader Instantiated: org.apache.velocity.runtime.resource.loader.ClasspathResourceLoader
2015-09-22 02:09:56,080 - ClasspathResourceLoader : initialization starting.
2015-09-22 02:09:56,080 - ClasspathResourceLoader : initialization complete.
2015-09-22 02:09:56,080 - ResourceCache : initialized. (class org.apache.velocity.runtime.resource.ResourceCacheImpl)
2015-09-22 02:09:56,080 - Default ResourceManager initialization complete.
2015-09-22 02:09:56,096 - Loaded System Directive: org.apache.velocity.runtime.directive.Literal
2015-09-22 02:09:56,096 - Loaded System Directive: org.apache.velocity.runtime.directive.Macro
2015-09-22 02:09:56,096 - Loaded System Directive: org.apache.velocity.runtime.directive.Parse
2015-09-22 02:09:56,096 - Loaded System Directive: org.apache.velocity.runtime.directive.Include
2015-09-22 02:09:56,096 - Loaded System Directive: org.apache.velocity.runtime.directive.Foreach
2015-09-22 02:09:56,127 - Created: 20 parsers.
2015-09-22 02:09:56,127 - Velocimacro : initialization starting.
2015-09-22 02:09:56,127 - Velocimacro : allowInline = true : VMs can be defined inline in templates
2015-09-22 02:09:56,127 - Velocimacro : allowInlineToOverride = false : VMs defined inline may NOT replace previous VM definitions
2015-09-22 02:09:56,127 - Velocimacro : allowInlineLocal = false : VMs defined inline will be  global in scope if allowed.
2015-09-22 02:09:56,127 - Velocimacro : messages on  : VM system will output logging messages
2015-09-22 02:09:56,127 - Velocimacro : autoload off  : VM system will not automatically reload global library macros
2015-09-22 02:09:56,127 - Velocimacro : initialization complete.
2015-09-22 02:09:56,127 - Velocity successfully started.
2015-09-22 02:10:45,174 - SimpleLog4JLogSystem initialized using logfile 'velocity.log'
2015-09-22 02:10:45,174 - ************************************************************** 
2015-09-22 02:10:45,174 - Starting Jakarta Velocity v1.4
2015-09-22 02:10:45,174 - RuntimeInstance initializing.
2015-09-22 02:10:45,174 - Default Properties File: org\apache\velocity\runtime\defaults\velocity.properties
2015-09-22 02:10:45,174 - Trying to use logger class org.apache.velocity.runtime.log.AvalonLogSystem
2015-09-22 02:10:45,174 - Couldn't find class org.apache.velocity.runtime.log.AvalonLogSystem or necessary supporting classes in classpath. Exception : java.lang.NoClassDefFoundError: org/apache/log/format/Formatter
2015-09-22 02:10:45,174 - Trying to use logger class org.apache.velocity.runtime.log.SimpleLog4JLogSystem
2015-09-22 02:10:45,174 - Using logger class org.apache.velocity.runtime.log.SimpleLog4JLogSystem
2015-09-22 02:10:45,174 - Default ResourceManager initializing. (class org.apache.velocity.runtime.resource.ResourceManagerImpl)
2015-09-22 02:10:45,174 - Resource Loader Instantiated: org.apache.velocity.runtime.resource.loader.ClasspathResourceLoader
2015-09-22 02:10:45,174 - ClasspathResourceLoader : initialization starting.
2015-09-22 02:10:45,174 - ClasspathResourceLoader : initialization complete.
2015-09-22 02:10:45,174 - ResourceCache : initialized. (class org.apache.velocity.runtime.resource.ResourceCacheImpl)
2015-09-22 02:10:45,174 - Default ResourceManager initialization complete.
2015-09-22 02:10:45,174 - Loaded System Directive: org.apache.velocity.runtime.directive.Literal
2015-09-22 02:10:45,190 - Loaded System Directive: org.apache.velocity.runtime.directive.Macro
2015-09-22 02:10:45,190 - Loaded System Directive: org.apache.velocity.runtime.directive.Parse
2015-09-22 02:10:45,190 - Loaded System Directive: org.apache.velocity.runtime.directive.Include
2015-09-22 02:10:45,190 - Loaded System Directive: org.apache.velocity.runtime.directive.Foreach
2015-09-22 02:10:45,205 - Created: 20 parsers.
2015-09-22 02:10:45,221 - Velocimacro : initialization starting.
2015-09-22 02:10:45,221 - Velocimacro : allowInline = true : VMs can be defined inline in templates
2015-09-22 02:10:45,221 - Velocimacro : allowInlineToOverride = false : VMs defined inline may NOT replace previous VM definitions
2015-09-22 02:10:45,221 - Velocimacro : allowInlineLocal = false : VMs defined inline will be  global in scope if allowed.
2015-09-22 02:10:45,221 - Velocimacro : messages on  : VM system will output logging messages
2015-09-22 02:10:45,221 - Velocimacro : autoload off  : VM system will not automatically reload global library macros
2015-09-22 02:10:45,221 - Velocimacro : initialization complete.
2015-09-22 02:10:45,221 - Velocity successfully started.
2015-09-22 02:10:48,034 - ResourceManager : found ru/ai/ccb/artifactGenerator/genutils/messages/named_script.vm with loader org.apache.velocity.runtime.resource.loader.ClasspathResourceLoader
2015-09-22 02:10:48,096 - ResourceManager : found ru/ai/ccb/artifactGenerator/genutils/messages/NamedMessages.vm with loader org.apache.velocity.runtime.resource.loader.ClasspathResourceLoader
2015-09-22 02:10:48,096 - ResourceManager : found ru/ai/ccb/artifactGenerator/batch/batch_script.vm with loader org.apache.velocity.runtime.resource.loader.ClasspathResourceLoader
2015-09-22 02:10:48,112 - ResourceManager : found ru/ai/ccb/artifactGenerator/features/feature_script.vm with loader org.apache.velocity.runtime.resource.loader.ClasspathResourceLoader
2015-09-23 11:01:52,147 - SimpleLog4JLogSystem initialized using logfile 'velocity.log'
2015-09-23 11:01:52,162 - ************************************************************** 
2015-09-23 11:01:52,162 - Starting Jakarta Velocity v1.4
2015-09-23 11:01:52,162 - RuntimeInstance initializing.
2015-09-23 11:01:52,162 - Default Properties File: org\apache\velocity\runtime\defaults\velocity.properties
2015-09-23 11:01:52,162 - Trying to use logger class org.apache.velocity.runtime.log.AvalonLogSystem
2015-09-23 11:01:52,162 - Couldn't find class org.apache.velocity.runtime.log.AvalonLogSystem or necessary supporting classes in classpath. Exception : java.lang.NoClassDefFoundError: org/apache/log/format/Formatter
2015-09-23 11:01:52,162 - Trying to use logger class org.apache.velocity.runtime.log.SimpleLog4JLogSystem
2015-09-23 11:01:52,162 - Using logger class org.apache.velocity.runtime.log.SimpleLog4JLogSystem
2015-09-23 11:01:52,162 - Default ResourceManager initializing. (class org.apache.velocity.runtime.resource.ResourceManagerImpl)
2015-09-23 11:01:52,162 - Resource Loader Instantiated: org.apache.velocity.runtime.resource.loader.ClasspathResourceLoader
2015-09-23 11:01:52,162 - ClasspathResourceLoader : initialization starting.
2015-09-23 11:01:52,162 - ClasspathResourceLoader : initialization complete.
2015-09-23 11:01:52,162 - ResourceCache : initialized. (class org.apache.velocity.runtime.resource.ResourceCacheImpl)
2015-09-23 11:01:52,162 - Default ResourceManager initialization complete.
2015-09-23 11:01:52,162 - Loaded System Directive: org.apache.velocity.runtime.directive.Literal
2015-09-23 11:01:52,162 - Loaded System Directive: org.apache.velocity.runtime.directive.Macro
2015-09-23 11:01:52,162 - Loaded System Directive: org.apache.velocity.runtime.directive.Parse
2015-09-23 11:01:52,162 - Loaded System Directive: org.apache.velocity.runtime.directive.Include
2015-09-23 11:01:52,178 - Loaded System Directive: org.apache.velocity.runtime.directive.Foreach
2015-09-23 11:01:52,193 - Created: 20 parsers.
2015-09-23 11:01:52,209 - Velocimacro : initialization starting.
2015-09-23 11:01:52,209 - Velocimacro : allowInline = true : VMs can be defined inline in templates
2015-09-23 11:01:52,209 - Velocimacro : allowInlineToOverride = false : VMs defined inline may NOT replace previous VM definitions
2015-09-23 11:01:52,209 - Velocimacro : allowInlineLocal = false : VMs defined inline will be  global in scope if allowed.
2015-09-23 11:01:52,209 - Velocimacro : messages on  : VM system will output logging messages
2015-09-23 11:01:52,209 - Velocimacro : autoload off  : VM system will not automatically reload global library macros
2015-09-23 11:01:52,209 - Velocimacro : initialization complete.
2015-09-23 11:01:52,209 - Velocity successfully started.
2015-09-23 11:01:54,282 - ResourceManager : found ru/ai/ccb/artifactGenerator/genutils/messages/named_script.vm with loader org.apache.velocity.runtime.resource.loader.ClasspathResourceLoader
2015-09-23 11:01:54,314 - ResourceManager : found ru/ai/ccb/artifactGenerator/genutils/messages/NamedMessages.vm with loader org.apache.velocity.runtime.resource.loader.ClasspathResourceLoader
2015-09-23 11:01:54,329 - ResourceManager : found ru/ai/ccb/artifactGenerator/batch/batch_script.vm with loader org.apache.velocity.runtime.resource.loader.ClasspathResourceLoader
2015-09-23 11:01:54,345 - ResourceManager : found ru/ai/ccb/artifactGenerator/features/feature_script.vm with loader org.apache.velocity.runtime.resource.loader.ClasspathResourceLoader
2015-09-23 11:27:49,401 - SimpleLog4JLogSystem initialized using logfile 'velocity.log'
2015-09-23 11:27:49,401 - ************************************************************** 
2015-09-23 11:27:49,401 - Starting Jakarta Velocity v1.4
2015-09-23 11:27:49,401 - RuntimeInstance initializing.
2015-09-23 11:27:49,401 - Default Properties File: org\apache\velocity\runtime\defaults\velocity.properties
2015-09-23 11:27:49,401 - Trying to use logger class org.apache.velocity.runtime.log.AvalonLogSystem
2015-09-23 11:27:49,401 - Couldn't find class org.apache.velocity.runtime.log.AvalonLogSystem or necessary supporting classes in classpath. Exception : java.lang.NoClassDefFoundError: org/apache/log/format/Formatter
2015-09-23 11:27:49,401 - Trying to use logger class org.apache.velocity.runtime.log.SimpleLog4JLogSystem
2015-09-23 11:27:49,401 - Using logger class org.apache.velocity.runtime.log.SimpleLog4JLogSystem
2015-09-23 11:27:49,401 - Default ResourceManager initializing. (class org.apache.velocity.runtime.resource.ResourceManagerImpl)
2015-09-23 11:27:49,416 - Resource Loader Instantiated: org.apache.velocity.runtime.resource.loader.ClasspathResourceLoader
2015-09-23 11:27:49,416 - ClasspathResourceLoader : initialization starting.
2015-09-23 11:27:49,416 - ClasspathResourceLoader : initialization complete.
2015-09-23 11:27:49,416 - ResourceCache : initialized. (class org.apache.velocity.runtime.resource.ResourceCacheImpl)
2015-09-23 11:27:49,416 - Default ResourceManager initialization complete.
2015-09-23 11:27:49,416 - Loaded System Directive: org.apache.velocity.runtime.directive.Literal
2015-09-23 11:27:49,416 - Loaded System Directive: org.apache.velocity.runtime.directive.Macro
2015-09-23 11:27:49,416 - Loaded System Directive: org.apache.velocity.runtime.directive.Parse
2015-09-23 11:27:49,416 - Loaded System Directive: org.apache.velocity.runtime.directive.Include
2015-09-23 11:27:49,416 - Loaded System Directive: org.apache.velocity.runtime.directive.Foreach
2015-09-23 11:27:49,448 - Created: 20 parsers.
2015-09-23 11:27:49,448 - Velocimacro : initialization starting.
2015-09-23 11:27:49,448 - Velocimacro : allowInline = true : VMs can be defined inline in templates
2015-09-23 11:27:49,448 - Velocimacro : allowInlineToOverride = false : VMs defined inline may NOT replace previous VM definitions
2015-09-23 11:27:49,448 - Velocimacro : allowInlineLocal = false : VMs defined inline will be  global in scope if allowed.
2015-09-23 11:27:49,448 - Velocimacro : messages on  : VM system will output logging messages
2015-09-23 11:27:49,448 - Velocimacro : autoload off  : VM system will not automatically reload global library macros
2015-09-23 11:27:49,448 - Velocimacro : initialization complete.
2015-09-23 11:27:49,448 - Velocity successfully started.
2015-09-23 11:27:51,655 - ResourceManager : found ru/ai/ccb/artifactGenerator/genutils/messages/named_script.vm with loader org.apache.velocity.runtime.resource.loader.ClasspathResourceLoader
2015-09-23 11:27:51,686 - ResourceManager : found ru/ai/ccb/artifactGenerator/genutils/messages/NamedMessages.vm with loader org.apache.velocity.runtime.resource.loader.ClasspathResourceLoader
2015-09-23 11:27:51,702 - ResourceManager : found ru/ai/ccb/artifactGenerator/batch/batch_script.vm with loader org.apache.velocity.runtime.resource.loader.ClasspathResourceLoader
2015-09-23 11:27:51,718 - ResourceManager : found ru/ai/ccb/artifactGenerator/features/feature_script.vm with loader org.apache.velocity.runtime.resource.loader.ClasspathResourceLoader
2015-09-23 11:29:03,414 - SimpleLog4JLogSystem initialized using logfile 'velocity.log'
2015-09-23 11:29:03,414 - ************************************************************** 
2015-09-23 11:29:03,414 - Starting Jakarta Velocity v1.4
2015-09-23 11:29:03,414 - RuntimeInstance initializing.
2015-09-23 11:29:03,414 - Default Properties File: org\apache\velocity\runtime\defaults\velocity.properties
2015-09-23 11:29:03,414 - Trying to use logger class org.apache.velocity.runtime.log.AvalonLogSystem
2015-09-23 11:29:03,414 - Couldn't find class org.apache.velocity.runtime.log.AvalonLogSystem or necessary supporting classes in classpath. Exception : java.lang.NoClassDefFoundError: org/apache/log/format/Formatter
2015-09-23 11:29:03,414 - Trying to use logger class org.apache.velocity.runtime.log.SimpleLog4JLogSystem
2015-09-23 11:29:03,414 - Using logger class org.apache.velocity.runtime.log.SimpleLog4JLogSystem
2015-09-23 11:29:03,414 - Default ResourceManager initializing. (class org.apache.velocity.runtime.resource.ResourceManagerImpl)
2015-09-23 11:29:03,414 - Resource Loader Instantiated: org.apache.velocity.runtime.resource.loader.ClasspathResourceLoader
2015-09-23 11:29:03,414 - ClasspathResourceLoader : initialization starting.
2015-09-23 11:29:03,414 - ClasspathResourceLoader : initialization complete.
2015-09-23 11:29:03,414 - ResourceCache : initialized. (class org.apache.velocity.runtime.resource.ResourceCacheImpl)
2015-09-23 11:29:03,414 - Default ResourceManager initialization complete.
2015-09-23 11:29:03,414 - Loaded System Directive: org.apache.velocity.runtime.directive.Literal
2015-09-23 11:29:03,414 - Loaded System Directive: org.apache.velocity.runtime.directive.Macro
2015-09-23 11:29:03,414 - Loaded System Directive: org.apache.velocity.runtime.directive.Parse
2015-09-23 11:29:03,414 - Loaded System Directive: org.apache.velocity.runtime.directive.Include
2015-09-23 11:29:03,414 - Loaded System Directive: org.apache.velocity.runtime.directive.Foreach
2015-09-23 11:29:03,445 - Created: 20 parsers.
2015-09-23 11:29:03,460 - Velocimacro : initialization starting.
2015-09-23 11:29:03,460 - Velocimacro : allowInline = true : VMs can be defined inline in templates
2015-09-23 11:29:03,460 - Velocimacro : allowInlineToOverride = false : VMs defined inline may NOT replace previous VM definitions
2015-09-23 11:29:03,460 - Velocimacro : allowInlineLocal = false : VMs defined inline will be  global in scope if allowed.
2015-09-23 11:29:03,460 - Velocimacro : messages on  : VM system will output logging messages
2015-09-23 11:29:03,460 - Velocimacro : autoload off  : VM system will not automatically reload global library macros
2015-09-23 11:29:03,460 - Velocimacro : initialization complete.
2015-09-23 11:29:03,460 - Velocity successfully started.
2015-09-23 11:29:05,616 - ResourceManager : found ru/ai/ccb/artifactGenerator/genutils/messages/named_script.vm with loader org.apache.velocity.runtime.resource.loader.ClasspathResourceLoader
2015-09-23 11:29:05,648 - ResourceManager : found ru/ai/ccb/artifactGenerator/genutils/messages/NamedMessages.vm with loader org.apache.velocity.runtime.resource.loader.ClasspathResourceLoader
2015-09-23 11:29:05,648 - ResourceManager : found ru/ai/ccb/artifactGenerator/batch/batch_script.vm with loader org.apache.velocity.runtime.resource.loader.ClasspathResourceLoader
2015-09-23 11:29:05,679 - ResourceManager : found ru/ai/ccb/artifactGenerator/features/feature_script.vm with loader org.apache.velocity.runtime.resource.loader.ClasspathResourceLoader
2015-09-23 12:19:35,969 - SimpleLog4JLogSystem initialized using logfile 'velocity.log'
2015-09-23 12:19:35,969 - ************************************************************** 
2015-09-23 12:19:35,969 - Starting Jakarta Velocity v1.4
2015-09-23 12:19:35,969 - RuntimeInstance initializing.
2015-09-23 12:19:35,969 - Default Properties File: org\apache\velocity\runtime\defaults\velocity.properties
2015-09-23 12:19:35,969 - Trying to use logger class org.apache.velocity.runtime.log.AvalonLogSystem
2015-09-23 12:19:35,969 - Couldn't find class org.apache.velocity.runtime.log.AvalonLogSystem or necessary supporting classes in classpath. Exception : java.lang.NoClassDefFoundError: org/apache/log/format/Formatter
2015-09-23 12:19:35,969 - Trying to use logger class org.apache.velocity.runtime.log.SimpleLog4JLogSystem
2015-09-23 12:19:35,969 - Using logger class org.apache.velocity.runtime.log.SimpleLog4JLogSystem
2015-09-23 12:19:35,985 - Default ResourceManager initializing. (class org.apache.velocity.runtime.resource.ResourceManagerImpl)
2015-09-23 12:19:35,985 - Resource Loader Instantiated: org.apache.velocity.runtime.resource.loader.ClasspathResourceLoader
2015-09-23 12:19:35,985 - ClasspathResourceLoader : initialization starting.
2015-09-23 12:19:35,985 - ClasspathResourceLoader : initialization complete.
2015-09-23 12:19:35,985 - ResourceCache : initialized. (class org.apache.velocity.runtime.resource.ResourceCacheImpl)
2015-09-23 12:19:35,985 - Default ResourceManager initialization complete.
2015-09-23 12:19:35,985 - Loaded System Directive: org.apache.velocity.runtime.directive.Literal
2015-09-23 12:19:35,985 - Loaded System Directive: org.apache.velocity.runtime.directive.Macro
2015-09-23 12:19:35,985 - Loaded System Directive: org.apache.velocity.runtime.directive.Parse
2015-09-23 12:19:35,985 - Loaded System Directive: org.apache.velocity.runtime.directive.Include
2015-09-23 12:19:35,985 - Loaded System Directive: org.apache.velocity.runtime.directive.Foreach
2015-09-23 12:19:36,016 - Created: 20 parsers.
2015-09-23 12:19:36,016 - Velocimacro : initialization starting.
2015-09-23 12:19:36,016 - Velocimacro : allowInline = true : VMs can be defined inline in templates
2015-09-23 12:19:36,016 - Velocimacro : allowInlineToOverride = false : VMs defined inline may NOT replace previous VM definitions
2015-09-23 12:19:36,016 - Velocimacro : allowInlineLocal = false : VMs defined inline will be  global in scope if allowed.
2015-09-23 12:19:36,016 - Velocimacro : messages on  : VM system will output logging messages
2015-09-23 12:19:36,016 - Velocimacro : autoload off  : VM system will not automatically reload global library macros
2015-09-23 12:19:36,016 - Velocimacro : initialization complete.
2015-09-23 12:19:36,016 - Velocity successfully started.
2015-09-23 12:19:50,184 - SimpleLog4JLogSystem initialized using logfile 'velocity.log'
2015-09-23 12:19:50,184 - ************************************************************** 
2015-09-23 12:19:50,184 - Starting Jakarta Velocity v1.4
2015-09-23 12:19:50,184 - RuntimeInstance initializing.
2015-09-23 12:19:50,184 - Default Properties File: org\apache\velocity\runtime\defaults\velocity.properties
2015-09-23 12:19:50,184 - Trying to use logger class org.apache.velocity.runtime.log.AvalonLogSystem
2015-09-23 12:19:50,184 - Couldn't find class org.apache.velocity.runtime.log.AvalonLogSystem or necessary supporting classes in classpath. Exception : java.lang.NoClassDefFoundError: org/apache/log/format/Formatter
2015-09-23 12:19:50,184 - Trying to use logger class org.apache.velocity.runtime.log.SimpleLog4JLogSystem
2015-09-23 12:19:50,184 - Using logger class org.apache.velocity.runtime.log.SimpleLog4JLogSystem
2015-09-23 12:19:50,184 - Default ResourceManager initializing. (class org.apache.velocity.runtime.resource.ResourceManagerImpl)
2015-09-23 12:19:50,184 - Resource Loader Instantiated: org.apache.velocity.runtime.resource.loader.ClasspathResourceLoader
2015-09-23 12:19:50,184 - ClasspathResourceLoader : initialization starting.
2015-09-23 12:19:50,184 - ClasspathResourceLoader : initialization complete.
2015-09-23 12:19:50,199 - ResourceCache : initialized. (class org.apache.velocity.runtime.resource.ResourceCacheImpl)
2015-09-23 12:19:50,199 - Default ResourceManager initialization complete.
2015-09-23 12:19:50,199 - Loaded System Directive: org.apache.velocity.runtime.directive.Literal
2015-09-23 12:19:50,199 - Loaded System Directive: org.apache.velocity.runtime.directive.Macro
2015-09-23 12:19:50,199 - Loaded System Directive: org.apache.velocity.runtime.directive.Parse
2015-09-23 12:19:50,199 - Loaded System Directive: org.apache.velocity.runtime.directive.Include
2015-09-23 12:19:50,199 - Loaded System Directive: org.apache.velocity.runtime.directive.Foreach
2015-09-23 12:19:50,246 - Created: 20 parsers.
2015-09-23 12:19:50,246 - Velocimacro : initialization starting.
2015-09-23 12:19:50,246 - Velocimacro : allowInline = true : VMs can be defined inline in templates
2015-09-23 12:19:50,246 - Velocimacro : allowInlineToOverride = false : VMs defined inline may NOT replace previous VM definitions
2015-09-23 12:19:50,246 - Velocimacro : allowInlineLocal = false : VMs defined inline will be  global in scope if allowed.
2015-09-23 12:19:50,246 - Velocimacro : messages on  : VM system will output logging messages
2015-09-23 12:19:50,246 - Velocimacro : autoload off  : VM system will not automatically reload global library macros
2015-09-23 12:19:50,246 - Velocimacro : initialization complete.
2015-09-23 12:19:50,246 - Velocity successfully started.
2015-09-23 12:19:52,589 - ResourceManager : found ru/ai/ccb/artifactGenerator/genutils/messages/named_script.vm with loader org.apache.velocity.runtime.resource.loader.ClasspathResourceLoader
2015-09-23 12:19:52,620 - ResourceManager : found ru/ai/ccb/artifactGenerator/genutils/messages/NamedMessages.vm with loader org.apache.velocity.runtime.resource.loader.ClasspathResourceLoader
2015-09-23 12:19:52,636 - ResourceManager : found ru/ai/ccb/artifactGenerator/batch/batch_script.vm with loader org.apache.velocity.runtime.resource.loader.ClasspathResourceLoader
2015-09-23 12:19:52,651 - ResourceManager : found ru/ai/ccb/artifactGenerator/features/feature_script.vm with loader org.apache.velocity.runtime.resource.loader.ClasspathResourceLoader
2015-09-23 12:21:03,694 - SimpleLog4JLogSystem initialized using logfile 'velocity.log'
2015-09-23 12:21:03,694 - ************************************************************** 
2015-09-23 12:21:03,694 - Starting Jakarta Velocity v1.4
2015-09-23 12:21:03,694 - RuntimeInstance initializing.
2015-09-23 12:21:03,694 - Default Properties File: org\apache\velocity\runtime\defaults\velocity.properties
2015-09-23 12:21:03,694 - Trying to use logger class org.apache.velocity.runtime.log.AvalonLogSystem
2015-09-23 12:21:03,694 - Couldn't find class org.apache.velocity.runtime.log.AvalonLogSystem or necessary supporting classes in classpath. Exception : java.lang.NoClassDefFoundError: org/apache/log/format/Formatter
2015-09-23 12:21:03,694 - Trying to use logger class org.apache.velocity.runtime.log.SimpleLog4JLogSystem
2015-09-23 12:21:03,694 - Using logger class org.apache.velocity.runtime.log.SimpleLog4JLogSystem
2015-09-23 12:21:03,694 - Default ResourceManager initializing. (class org.apache.velocity.runtime.resource.ResourceManagerImpl)
2015-09-23 12:21:03,694 - Resource Loader Instantiated: org.apache.velocity.runtime.resource.loader.ClasspathResourceLoader
2015-09-23 12:21:03,694 - ClasspathResourceLoader : initialization starting.
2015-09-23 12:21:03,694 - ClasspathResourceLoader : initialization complete.
2015-09-23 12:21:03,694 - ResourceCache : initialized. (class org.apache.velocity.runtime.resource.ResourceCacheImpl)
2015-09-23 12:21:03,694 - Default ResourceManager initialization complete.
2015-09-23 12:21:03,694 - Loaded System Directive: org.apache.velocity.runtime.directive.Literal
2015-09-23 12:21:03,694 - Loaded System Directive: org.apache.velocity.runtime.directive.Macro
2015-09-23 12:21:03,710 - Loaded System Directive: org.apache.velocity.runtime.directive.Parse
2015-09-23 12:21:03,710 - Loaded System Directive: org.apache.velocity.runtime.directive.Include
2015-09-23 12:21:03,710 - Loaded System Directive: org.apache.velocity.runtime.directive.Foreach
2015-09-23 12:21:03,772 - Created: 20 parsers.
2015-09-23 12:21:03,772 - Velocimacro : initialization starting.
2015-09-23 12:21:03,772 - Velocimacro : allowInline = true : VMs can be defined inline in templates
2015-09-23 12:21:03,772 - Velocimacro : allowInlineToOverride = false : VMs defined inline may NOT replace previous VM definitions
2015-09-23 12:21:03,772 - Velocimacro : allowInlineLocal = false : VMs defined inline will be  global in scope if allowed.
2015-09-23 12:21:03,772 - Velocimacro : messages on  : VM system will output logging messages
2015-09-23 12:21:03,772 - Velocimacro : autoload off  : VM system will not automatically reload global library macros
2015-09-23 12:21:03,772 - Velocimacro : initialization complete.
2015-09-23 12:21:03,772 - Velocity successfully started.
2015-09-23 12:21:05,944 - ResourceManager : found ru/ai/ccb/artifactGenerator/genutils/messages/named_script.vm with loader org.apache.velocity.runtime.resource.loader.ClasspathResourceLoader
2015-09-23 12:21:05,975 - ResourceManager : found ru/ai/ccb/artifactGenerator/genutils/messages/NamedMessages.vm with loader org.apache.velocity.runtime.resource.loader.ClasspathResourceLoader
2015-09-23 12:21:05,991 - ResourceManager : found ru/ai/ccb/artifactGenerator/batch/batch_script.vm with loader org.apache.velocity.runtime.resource.loader.ClasspathResourceLoader
2015-09-23 12:21:06,006 - ResourceManager : found ru/ai/ccb/artifactGenerator/features/feature_script.vm with loader org.apache.velocity.runtime.resource.loader.ClasspathResourceLoader
2015-09-24 20:32:34,941 - SimpleLog4JLogSystem initialized using logfile 'velocity.log'
2015-09-24 20:32:34,956 - ************************************************************** 
2015-09-24 20:32:34,956 - Starting Jakarta Velocity v1.4
2015-09-24 20:32:34,956 - RuntimeInstance initializing.
2015-09-24 20:32:34,956 - Default Properties File: org\apache\velocity\runtime\defaults\velocity.properties
2015-09-24 20:32:34,956 - Trying to use logger class org.apache.velocity.runtime.log.AvalonLogSystem
2015-09-24 20:32:34,956 - Couldn't find class org.apache.velocity.runtime.log.AvalonLogSystem or necessary supporting classes in classpath. Exception : java.lang.NoClassDefFoundError: org/apache/log/format/Formatter
2015-09-24 20:32:34,956 - Trying to use logger class org.apache.velocity.runtime.log.SimpleLog4JLogSystem
2015-09-24 20:32:34,956 - Using logger class org.apache.velocity.runtime.log.SimpleLog4JLogSystem
2015-09-24 20:32:34,972 - Default ResourceManager initializing. (class org.apache.velocity.runtime.resource.ResourceManagerImpl)
2015-09-24 20:32:34,988 - Resource Loader Instantiated: org.apache.velocity.runtime.resource.loader.ClasspathResourceLoader
2015-09-24 20:32:34,988 - ClasspathResourceLoader : initialization starting.
2015-09-24 20:32:34,988 - ClasspathResourceLoader : initialization complete.
2015-09-24 20:32:34,988 - ResourceCache : initialized. (class org.apache.velocity.runtime.resource.ResourceCacheImpl)
2015-09-24 20:32:34,988 - Default ResourceManager initialization complete.
2015-09-24 20:32:34,988 - Loaded System Directive: org.apache.velocity.runtime.directive.Literal
2015-09-24 20:32:34,988 - Loaded System Directive: org.apache.velocity.runtime.directive.Macro
2015-09-24 20:32:34,988 - Loaded System Directive: org.apache.velocity.runtime.directive.Parse
2015-09-24 20:32:35,003 - Loaded System Directive: org.apache.velocity.runtime.directive.Include
2015-09-24 20:32:35,003 - Loaded System Directive: org.apache.velocity.runtime.directive.Foreach
2015-09-24 20:32:35,081 - Created: 20 parsers.
2015-09-24 20:32:35,081 - Velocimacro : initialization starting.
2015-09-24 20:32:35,081 - Velocimacro : allowInline = true : VMs can be defined inline in templates
2015-09-24 20:32:35,081 - Velocimacro : allowInlineToOverride = false : VMs defined inline may NOT replace previous VM definitions
2015-09-24 20:32:35,081 - Velocimacro : allowInlineLocal = false : VMs defined inline will be  global in scope if allowed.
2015-09-24 20:32:35,081 - Velocimacro : messages on  : VM system will output logging messages
2015-09-24 20:32:35,081 - Velocimacro : autoload off  : VM system will not automatically reload global library macros
2015-09-24 20:32:35,081 - Velocimacro : initialization complete.
2015-09-24 20:32:35,081 - Velocity successfully started.
2015-09-24 20:32:37,674 - ResourceManager : found ru/ai/ccb/artifactGenerator/genutils/messages/named_script.vm with loader org.apache.velocity.runtime.resource.loader.ClasspathResourceLoader
2015-09-24 20:32:37,721 - ResourceManager : found ru/ai/ccb/artifactGenerator/genutils/messages/NamedMessages.vm with loader org.apache.velocity.runtime.resource.loader.ClasspathResourceLoader
2015-09-24 20:32:37,721 - ResourceManager : found ru/ai/ccb/artifactGenerator/batch/batch_script.vm with loader org.apache.velocity.runtime.resource.loader.ClasspathResourceLoader
2015-09-24 20:32:37,736 - ResourceManager : found ru/ai/ccb/artifactGenerator/features/feature_script.vm with loader org.apache.velocity.runtime.resource.loader.ClasspathResourceLoader
2015-09-28 14:13:30,306 - SimpleLog4JLogSystem initialized using logfile 'velocity.log'
2015-09-28 14:13:30,314 - ************************************************************** 
2015-09-28 14:13:30,314 - Starting Jakarta Velocity v1.4
2015-09-28 14:13:30,314 - RuntimeInstance initializing.
2015-09-28 14:13:30,314 - Default Properties File: org\apache\velocity\runtime\defaults\velocity.properties
2015-09-28 14:13:30,314 - Trying to use logger class org.apache.velocity.runtime.log.AvalonLogSystem
2015-09-28 14:13:30,314 - Couldn't find class org.apache.velocity.runtime.log.AvalonLogSystem or necessary supporting classes in classpath. Exception : java.lang.NoClassDefFoundError: org/apache/log/format/Formatter
2015-09-28 14:13:30,314 - Trying to use logger class org.apache.velocity.runtime.log.SimpleLog4JLogSystem
2015-09-28 14:13:30,314 - Using logger class org.apache.velocity.runtime.log.SimpleLog4JLogSystem
2015-09-28 14:13:30,316 - Default ResourceManager initializing. (class org.apache.velocity.runtime.resource.ResourceManagerImpl)
2015-09-28 14:13:30,318 - Resource Loader Instantiated: org.apache.velocity.runtime.resource.loader.ClasspathResourceLoader
2015-09-28 14:13:30,318 - ClasspathResourceLoader : initialization starting.
2015-09-28 14:13:30,318 - ClasspathResourceLoader : initialization complete.
2015-09-28 14:13:30,319 - ResourceCache : initialized. (class org.apache.velocity.runtime.resource.ResourceCacheImpl)
2015-09-28 14:13:30,319 - Default ResourceManager initialization complete.
2015-09-28 14:13:30,321 - Loaded System Directive: org.apache.velocity.runtime.directive.Literal
2015-09-28 14:13:30,322 - Loaded System Directive: org.apache.velocity.runtime.directive.Macro
2015-09-28 14:13:30,324 - Loaded System Directive: org.apache.velocity.runtime.directive.Parse
2015-09-28 14:13:30,325 - Loaded System Directive: org.apache.velocity.runtime.directive.Include
2015-09-28 14:13:30,326 - Loaded System Directive: org.apache.velocity.runtime.directive.Foreach
2015-09-28 14:13:30,351 - Created: 20 parsers.
2015-09-28 14:13:30,356 - Velocimacro : initialization starting.
2015-09-28 14:13:30,356 - Velocimacro : allowInline = true : VMs can be defined inline in templates
2015-09-28 14:13:30,356 - Velocimacro : allowInlineToOverride = false : VMs defined inline may NOT replace previous VM definitions
2015-09-28 14:13:30,356 - Velocimacro : allowInlineLocal = false : VMs defined inline will be  global in scope if allowed.
2015-09-28 14:13:30,356 - Velocimacro : messages on  : VM system will output logging messages
2015-09-28 14:13:30,356 - Velocimacro : autoload off  : VM system will not automatically reload global library macros
2015-09-28 14:13:30,356 - Velocimacro : initialization complete.
2015-09-28 14:13:30,356 - Velocity successfully started.
2015-09-28 14:13:32,597 - ResourceManager : found ru/ai/ccb/artifactGenerator/genutils/messages/named_script.vm with loader org.apache.velocity.runtime.resource.loader.ClasspathResourceLoader
2015-09-28 14:13:32,659 - ResourceManager : found ru/ai/ccb/artifactGenerator/genutils/messages/NamedMessages.vm with loader org.apache.velocity.runtime.resource.loader.ClasspathResourceLoader
2015-09-28 14:13:32,691 - ResourceManager : found ru/ai/ccb/artifactGenerator/batch/batch_script.vm with loader org.apache.velocity.runtime.resource.loader.ClasspathResourceLoader
2015-09-28 14:13:32,706 - ResourceManager : found ru/ai/ccb/artifactGenerator/features/feature_script.vm with loader org.apache.velocity.runtime.resource.loader.ClasspathResourceLoader
2015-09-28 14:18:38,628 - SimpleLog4JLogSystem initialized using logfile 'velocity.log'
2015-09-28 14:18:38,643 - ************************************************************** 
2015-09-28 14:18:38,643 - Starting Jakarta Velocity v1.4
2015-09-28 14:18:38,643 - RuntimeInstance initializing.
2015-09-28 14:18:38,643 - Default Properties File: org\apache\velocity\runtime\defaults\velocity.properties
2015-09-28 14:18:38,643 - Trying to use logger class org.apache.velocity.runtime.log.AvalonLogSystem
2015-09-28 14:18:38,643 - Couldn't find class org.apache.velocity.runtime.log.AvalonLogSystem or necessary supporting classes in classpath. Exception : java.lang.NoClassDefFoundError: org/apache/log/format/Formatter
2015-09-28 14:18:38,643 - Trying to use logger class org.apache.velocity.runtime.log.SimpleLog4JLogSystem
2015-09-28 14:18:38,643 - Using logger class org.apache.velocity.runtime.log.SimpleLog4JLogSystem
2015-09-28 14:18:38,643 - Default ResourceManager initializing. (class org.apache.velocity.runtime.resource.ResourceManagerImpl)
2015-09-28 14:18:38,643 - Resource Loader Instantiated: org.apache.velocity.runtime.resource.loader.ClasspathResourceLoader
2015-09-28 14:18:38,643 - ClasspathResourceLoader : initialization starting.
2015-09-28 14:18:38,643 - ClasspathResourceLoader : initialization complete.
2015-09-28 14:18:38,643 - ResourceCache : initialized. (class org.apache.velocity.runtime.resource.ResourceCacheImpl)
2015-09-28 14:18:38,643 - Default ResourceManager initialization complete.
2015-09-28 14:18:38,643 - Loaded System Directive: org.apache.velocity.runtime.directive.Literal
2015-09-28 14:18:38,643 - Loaded System Directive: org.apache.velocity.runtime.directive.Macro
2015-09-28 14:18:38,643 - Loaded System Directive: org.apache.velocity.runtime.directive.Parse
2015-09-28 14:18:38,643 - Loaded System Directive: org.apache.velocity.runtime.directive.Include
2015-09-28 14:18:38,643 - Loaded System Directive: org.apache.velocity.runtime.directive.Foreach
2015-09-28 14:18:38,674 - Created: 20 parsers.
2015-09-28 14:18:38,674 - Velocimacro : initialization starting.
2015-09-28 14:18:38,674 - Velocimacro : allowInline = true : VMs can be defined inline in templates
2015-09-28 14:18:38,674 - Velocimacro : allowInlineToOverride = false : VMs defined inline may NOT replace previous VM definitions
2015-09-28 14:18:38,674 - Velocimacro : allowInlineLocal = false : VMs defined inline will be  global in scope if allowed.
2015-09-28 14:18:38,674 - Velocimacro : messages on  : VM system will output logging messages
2015-09-28 14:18:38,674 - Velocimacro : autoload off  : VM system will not automatically reload global library macros
2015-09-28 14:18:38,674 - Velocimacro : initialization complete.
2015-09-28 14:18:38,674 - Velocity successfully started.
2015-09-28 14:18:40,643 - ResourceManager : found ru/ai/ccb/artifactGenerator/genutils/messages/named_script.vm with loader org.apache.velocity.runtime.resource.loader.ClasspathResourceLoader
2015-09-28 14:18:40,674 - ResourceManager : found ru/ai/ccb/artifactGenerator/genutils/messages/NamedMessages.vm with loader org.apache.velocity.runtime.resource.loader.ClasspathResourceLoader
2015-09-28 14:18:40,674 - ResourceManager : found ru/ai/ccb/artifactGenerator/batch/batch_script.vm with loader org.apache.velocity.runtime.resource.loader.ClasspathResourceLoader
2015-09-28 14:18:40,690 - ResourceManager : found ru/ai/ccb/artifactGenerator/features/feature_script.vm with loader org.apache.velocity.runtime.resource.loader.ClasspathResourceLoader
2015-09-28 14:22:07,331 - SimpleLog4JLogSystem initialized using logfile 'velocity.log'
2015-09-28 14:22:07,331 - ************************************************************** 
2015-09-28 14:22:07,331 - Starting Jakarta Velocity v1.4
2015-09-28 14:22:07,331 - RuntimeInstance initializing.
2015-09-28 14:22:07,331 - Default Properties File: org\apache\velocity\runtime\defaults\velocity.properties
2015-09-28 14:22:07,331 - Trying to use logger class org.apache.velocity.runtime.log.AvalonLogSystem
2015-09-28 14:22:07,331 - Couldn't find class org.apache.velocity.runtime.log.AvalonLogSystem or necessary supporting classes in classpath. Exception : java.lang.NoClassDefFoundError: org/apache/log/format/Formatter
2015-09-28 14:22:07,331 - Trying to use logger class org.apache.velocity.runtime.log.SimpleLog4JLogSystem
2015-09-28 14:22:07,331 - Using logger class org.apache.velocity.runtime.log.SimpleLog4JLogSystem
2015-09-28 14:22:07,331 - Default ResourceManager initializing. (class org.apache.velocity.runtime.resource.ResourceManagerImpl)
2015-09-28 14:22:07,331 - Resource Loader Instantiated: org.apache.velocity.runtime.resource.loader.ClasspathResourceLoader
2015-09-28 14:22:07,331 - ClasspathResourceLoader : initialization starting.
2015-09-28 14:22:07,331 - ClasspathResourceLoader : initialization complete.
2015-09-28 14:22:07,378 - ResourceCache : initialized. (class org.apache.velocity.runtime.resource.ResourceCacheImpl)
2015-09-28 14:22:07,378 - Default ResourceManager initialization complete.
2015-09-28 14:22:07,378 - Loaded System Directive: org.apache.velocity.runtime.directive.Literal
2015-09-28 14:22:07,378 - Loaded System Directive: org.apache.velocity.runtime.directive.Macro
2015-09-28 14:22:07,393 - Loaded System Directive: org.apache.velocity.runtime.directive.Parse
2015-09-28 14:22:07,393 - Loaded System Directive: org.apache.velocity.runtime.directive.Include
2015-09-28 14:22:07,393 - Loaded System Directive: org.apache.velocity.runtime.directive.Foreach
2015-09-28 14:22:07,425 - Created: 20 parsers.
2015-09-28 14:22:07,425 - Velocimacro : initialization starting.
2015-09-28 14:22:07,425 - Velocimacro : allowInline = true : VMs can be defined inline in templates
2015-09-28 14:22:07,425 - Velocimacro : allowInlineToOverride = false : VMs defined inline may NOT replace previous VM definitions
2015-09-28 14:22:07,425 - Velocimacro : allowInlineLocal = false : VMs defined inline will be  global in scope if allowed.
2015-09-28 14:22:07,425 - Velocimacro : messages on  : VM system will output logging messages
2015-09-28 14:22:07,425 - Velocimacro : autoload off  : VM system will not automatically reload global library macros
2015-09-28 14:22:07,425 - Velocimacro : initialization complete.
2015-09-28 14:22:07,425 - Velocity successfully started.
2015-09-28 14:22:09,440 - ResourceManager : found ru/ai/ccb/artifactGenerator/genutils/messages/named_script.vm with loader org.apache.velocity.runtime.resource.loader.ClasspathResourceLoader
2015-09-28 14:22:09,471 - ResourceManager : found ru/ai/ccb/artifactGenerator/genutils/messages/NamedMessages.vm with loader org.apache.velocity.runtime.resource.loader.ClasspathResourceLoader
2015-09-28 14:22:09,487 - ResourceManager : found ru/ai/ccb/artifactGenerator/batch/batch_script.vm with loader org.apache.velocity.runtime.resource.loader.ClasspathResourceLoader
2015-09-28 14:22:09,502 - ResourceManager : found ru/ai/ccb/artifactGenerator/features/feature_script.vm with loader org.apache.velocity.runtime.resource.loader.ClasspathResourceLoader
2015-10-01 11:19:43,691 - SimpleLog4JLogSystem initialized using logfile 'velocity.log'
2015-10-01 11:19:43,706 - ************************************************************** 
2015-10-01 11:19:43,706 - Starting Jakarta Velocity v1.4
2015-10-01 11:19:43,706 - RuntimeInstance initializing.
2015-10-01 11:19:43,706 - Default Properties File: org\apache\velocity\runtime\defaults\velocity.properties
2015-10-01 11:19:43,706 - Trying to use logger class org.apache.velocity.runtime.log.AvalonLogSystem
2015-10-01 11:19:43,706 - Couldn't find class org.apache.velocity.runtime.log.AvalonLogSystem or necessary supporting classes in classpath. Exception : java.lang.NoClassDefFoundError: org/apache/log/format/Formatter
2015-10-01 11:19:43,706 - Trying to use logger class org.apache.velocity.runtime.log.SimpleLog4JLogSystem
2015-10-01 11:19:43,706 - Using logger class org.apache.velocity.runtime.log.SimpleLog4JLogSystem
2015-10-01 11:19:43,706 - Default ResourceManager initializing. (class org.apache.velocity.runtime.resource.ResourceManagerImpl)
2015-10-01 11:19:43,706 - Resource Loader Instantiated: org.apache.velocity.runtime.resource.loader.ClasspathResourceLoader
2015-10-01 11:19:43,706 - ClasspathResourceLoader : initialization starting.
2015-10-01 11:19:43,706 - ClasspathResourceLoader : initialization complete.
2015-10-01 11:19:43,706 - ResourceCache : initialized. (class org.apache.velocity.runtime.resource.ResourceCacheImpl)
2015-10-01 11:19:43,706 - Default ResourceManager initialization complete.
2015-10-01 11:19:43,706 - Loaded System Directive: org.apache.velocity.runtime.directive.Literal
2015-10-01 11:19:43,706 - Loaded System Directive: org.apache.velocity.runtime.directive.Macro
2015-10-01 11:19:43,706 - Loaded System Directive: org.apache.velocity.runtime.directive.Parse
2015-10-01 11:19:43,706 - Loaded System Directive: org.apache.velocity.runtime.directive.Include
2015-10-01 11:19:43,706 - Loaded System Directive: org.apache.velocity.runtime.directive.Foreach
2015-10-01 11:19:43,738 - Created: 20 parsers.
2015-10-01 11:19:43,738 - Velocimacro : initialization starting.
2015-10-01 11:19:43,738 - Velocimacro : allowInline = true : VMs can be defined inline in templates
2015-10-01 11:19:43,738 - Velocimacro : allowInlineToOverride = false : VMs defined inline may NOT replace previous VM definitions
2015-10-01 11:19:43,738 - Velocimacro : allowInlineLocal = false : VMs defined inline will be  global in scope if allowed.
2015-10-01 11:19:43,738 - Velocimacro : messages on  : VM system will output logging messages
2015-10-01 11:19:43,738 - Velocimacro : autoload off  : VM system will not automatically reload global library macros
2015-10-01 11:19:43,738 - Velocimacro : initialization complete.
2015-10-01 11:19:43,738 - Velocity successfully started.
2015-10-01 11:19:45,534 - ResourceManager : found ru/ai/ccb/artifactGenerator/genutils/messages/named_script.vm with loader org.apache.velocity.runtime.resource.loader.ClasspathResourceLoader
2015-10-01 11:19:45,565 - ResourceManager : found ru/ai/ccb/artifactGenerator/genutils/messages/NamedMessages.vm with loader org.apache.velocity.runtime.resource.loader.ClasspathResourceLoader
2015-10-01 11:19:45,580 - ResourceManager : found ru/ai/ccb/artifactGenerator/batch/batch_script.vm with loader org.apache.velocity.runtime.resource.loader.ClasspathResourceLoader
2015-10-01 11:19:45,596 - ResourceManager : found ru/ai/ccb/artifactGenerator/features/feature_script.vm with loader org.apache.velocity.runtime.resource.loader.ClasspathResourceLoader
2015-10-01 11:27:59,579 - SimpleLog4JLogSystem initialized using logfile 'velocity.log'
2015-10-01 11:27:59,579 - ************************************************************** 
2015-10-01 11:27:59,579 - Starting Jakarta Velocity v1.4
2015-10-01 11:27:59,579 - RuntimeInstance initializing.
2015-10-01 11:27:59,579 - Default Properties File: org\apache\velocity\runtime\defaults\velocity.properties
2015-10-01 11:27:59,579 - Trying to use logger class org.apache.velocity.runtime.log.AvalonLogSystem
2015-10-01 11:27:59,579 - Couldn't find class org.apache.velocity.runtime.log.AvalonLogSystem or necessary supporting classes in classpath. Exception : java.lang.NoClassDefFoundError: org/apache/log/format/Formatter
2015-10-01 11:27:59,579 - Trying to use logger class org.apache.velocity.runtime.log.SimpleLog4JLogSystem
2015-10-01 11:27:59,579 - Using logger class org.apache.velocity.runtime.log.SimpleLog4JLogSystem
2015-10-01 11:27:59,579 - Default ResourceManager initializing. (class org.apache.velocity.runtime.resource.ResourceManagerImpl)
2015-10-01 11:27:59,579 - Resource Loader Instantiated: org.apache.velocity.runtime.resource.loader.ClasspathResourceLoader
2015-10-01 11:27:59,579 - ClasspathResourceLoader : initialization starting.
2015-10-01 11:27:59,579 - ClasspathResourceLoader : initialization complete.
2015-10-01 11:27:59,579 - ResourceCache : initialized. (class org.apache.velocity.runtime.resource.ResourceCacheImpl)
2015-10-01 11:27:59,579 - Default ResourceManager initialization complete.
2015-10-01 11:27:59,579 - Loaded System Directive: org.apache.velocity.runtime.directive.Literal
2015-10-01 11:27:59,579 - Loaded System Directive: org.apache.velocity.runtime.directive.Macro
2015-10-01 11:27:59,579 - Loaded System Directive: org.apache.velocity.runtime.directive.Parse
2015-10-01 11:27:59,579 - Loaded System Directive: org.apache.velocity.runtime.directive.Include
2015-10-01 11:27:59,579 - Loaded System Directive: org.apache.velocity.runtime.directive.Foreach
2015-10-01 11:27:59,610 - Created: 20 parsers.
2015-10-01 11:27:59,610 - Velocimacro : initialization starting.
2015-10-01 11:27:59,610 - Velocimacro : allowInline = true : VMs can be defined inline in templates
2015-10-01 11:27:59,610 - Velocimacro : allowInlineToOverride = false : VMs defined inline may NOT replace previous VM definitions
2015-10-01 11:27:59,610 - Velocimacro : allowInlineLocal = false : VMs defined inline will be  global in scope if allowed.
2015-10-01 11:27:59,610 - Velocimacro : messages on  : VM system will output logging messages
2015-10-01 11:27:59,610 - Velocimacro : autoload off  : VM system will not automatically reload global library macros
2015-10-01 11:27:59,610 - Velocimacro : initialization complete.
2015-10-01 11:27:59,610 - Velocity successfully started.
2015-10-01 11:28:01,625 - ResourceManager : found ru/ai/ccb/artifactGenerator/genutils/messages/named_script.vm with loader org.apache.velocity.runtime.resource.loader.ClasspathResourceLoader
2015-10-01 11:28:01,672 - ResourceManager : found ru/ai/ccb/artifactGenerator/genutils/messages/NamedMessages.vm with loader org.apache.velocity.runtime.resource.loader.ClasspathResourceLoader
2015-10-01 11:28:01,687 - ResourceManager : found ru/ai/ccb/artifactGenerator/batch/batch_script.vm with loader org.apache.velocity.runtime.resource.loader.ClasspathResourceLoader
2015-10-01 11:28:01,703 - ResourceManager : found ru/ai/ccb/artifactGenerator/features/feature_script.vm with loader org.apache.velocity.runtime.resource.loader.ClasspathResourceLoader
2015-10-01 12:04:34,328 - SimpleLog4JLogSystem initialized using logfile 'velocity.log'
2015-10-01 12:04:34,328 - ************************************************************** 
2015-10-01 12:04:34,328 - Starting Jakarta Velocity v1.4
2015-10-01 12:04:34,328 - RuntimeInstance initializing.
2015-10-01 12:04:34,328 - Default Properties File: org\apache\velocity\runtime\defaults\velocity.properties
2015-10-01 12:04:34,328 - Trying to use logger class org.apache.velocity.runtime.log.AvalonLogSystem
2015-10-01 12:04:34,328 - Couldn't find class org.apache.velocity.runtime.log.AvalonLogSystem or necessary supporting classes in classpath. Exception : java.lang.NoClassDefFoundError: org/apache/log/format/Formatter
2015-10-01 12:04:34,328 - Trying to use logger class org.apache.velocity.runtime.log.SimpleLog4JLogSystem
2015-10-01 12:04:34,328 - Using logger class org.apache.velocity.runtime.log.SimpleLog4JLogSystem
2015-10-01 12:04:34,328 - Default ResourceManager initializing. (class org.apache.velocity.runtime.resource.ResourceManagerImpl)
2015-10-01 12:04:34,328 - Resource Loader Instantiated: org.apache.velocity.runtime.resource.loader.ClasspathResourceLoader
2015-10-01 12:04:34,328 - ClasspathResourceLoader : initialization starting.
2015-10-01 12:04:34,328 - ClasspathResourceLoader : initialization complete.
2015-10-01 12:04:34,328 - ResourceCache : initialized. (class org.apache.velocity.runtime.resource.ResourceCacheImpl)
2015-10-01 12:04:34,328 - Default ResourceManager initialization complete.
2015-10-01 12:04:34,328 - Loaded System Directive: org.apache.velocity.runtime.directive.Literal
2015-10-01 12:04:34,344 - Loaded System Directive: org.apache.velocity.runtime.directive.Macro
2015-10-01 12:04:34,344 - Loaded System Directive: org.apache.velocity.runtime.directive.Parse
2015-10-01 12:04:34,344 - Loaded System Directive: org.apache.velocity.runtime.directive.Include
2015-10-01 12:04:34,344 - Loaded System Directive: org.apache.velocity.runtime.directive.Foreach
2015-10-01 12:04:34,359 - Created: 20 parsers.
2015-10-01 12:04:34,375 - Velocimacro : initialization starting.
2015-10-01 12:04:34,375 - Velocimacro : allowInline = true : VMs can be defined inline in templates
2015-10-01 12:04:34,375 - Velocimacro : allowInlineToOverride = false : VMs defined inline may NOT replace previous VM definitions
2015-10-01 12:04:34,375 - Velocimacro : allowInlineLocal = false : VMs defined inline will be  global in scope if allowed.
2015-10-01 12:04:34,375 - Velocimacro : messages on  : VM system will output logging messages
2015-10-01 12:04:34,375 - Velocimacro : autoload off  : VM system will not automatically reload global library macros
2015-10-01 12:04:34,375 - Velocimacro : initialization complete.
2015-10-01 12:04:34,375 - Velocity successfully started.
2015-10-01 12:04:36,529 - ResourceManager : found ru/ai/ccb/artifactGenerator/genutils/messages/named_script.vm with loader org.apache.velocity.runtime.resource.loader.ClasspathResourceLoader
2015-10-01 12:04:36,576 - ResourceManager : found ru/ai/ccb/artifactGenerator/genutils/messages/NamedMessages.vm with loader org.apache.velocity.runtime.resource.loader.ClasspathResourceLoader
2015-10-01 12:04:36,591 - ResourceManager : found ru/ai/ccb/artifactGenerator/batch/batch_script.vm with loader org.apache.velocity.runtime.resource.loader.ClasspathResourceLoader
2015-10-01 12:04:36,607 - ResourceManager : found ru/ai/ccb/artifactGenerator/features/feature_script.vm with loader org.apache.velocity.runtime.resource.loader.ClasspathResourceLoader
2015-12-02 09:25:31,661 - SimpleLog4JLogSystem initialized using logfile 'velocity.log'
2015-12-02 09:25:31,661 - ************************************************************** 
2015-12-02 09:25:31,661 - Starting Jakarta Velocity v1.4
2015-12-02 09:25:31,661 - RuntimeInstance initializing.
2015-12-02 09:25:31,661 - Default Properties File: org\apache\velocity\runtime\defaults\velocity.properties
2015-12-02 09:25:31,661 - Trying to use logger class org.apache.velocity.runtime.log.AvalonLogSystem
2015-12-02 09:25:31,661 - Couldn't find class org.apache.velocity.runtime.log.AvalonLogSystem or necessary supporting classes in classpath. Exception : java.lang.NoClassDefFoundError: org/apache/log/format/Formatter
2015-12-02 09:25:31,661 - Trying to use logger class org.apache.velocity.runtime.log.SimpleLog4JLogSystem
2015-12-02 09:25:31,661 - Using logger class org.apache.velocity.runtime.log.SimpleLog4JLogSystem
2015-12-02 09:25:31,676 - Default ResourceManager initializing. (class org.apache.velocity.runtime.resource.ResourceManagerImpl)
2015-12-02 09:25:31,676 - Resource Loader Instantiated: org.apache.velocity.runtime.resource.loader.ClasspathResourceLoader
2015-12-02 09:25:31,676 - ClasspathResourceLoader : initialization starting.
2015-12-02 09:25:31,676 - ClasspathResourceLoader : initialization complete.
2015-12-02 09:25:31,676 - ResourceCache : initialized. (class org.apache.velocity.runtime.resource.ResourceCacheImpl)
2015-12-02 09:25:31,676 - Default ResourceManager initialization complete.
2015-12-02 09:25:31,676 - Loaded System Directive: org.apache.velocity.runtime.directive.Literal
2015-12-02 09:25:31,676 - Loaded System Directive: org.apache.velocity.runtime.directive.Macro
2015-12-02 09:25:31,692 - Loaded System Directive: org.apache.velocity.runtime.directive.Parse
2015-12-02 09:25:31,692 - Loaded System Directive: org.apache.velocity.runtime.directive.Include
2015-12-02 09:25:31,692 - Loaded System Directive: org.apache.velocity.runtime.directive.Foreach
2015-12-02 09:25:31,863 - Created: 20 parsers.
2015-12-02 09:25:31,863 - Velocimacro : initialization starting.
2015-12-02 09:25:31,863 - Velocimacro : allowInline = true : VMs can be defined inline in templates
2015-12-02 09:25:31,863 - Velocimacro : allowInlineToOverride = false : VMs defined inline may NOT replace previous VM definitions
2015-12-02 09:25:31,863 - Velocimacro : allowInlineLocal = false : VMs defined inline will be  global in scope if allowed.
2015-12-02 09:25:31,863 - Velocimacro : messages on  : VM system will output logging messages
2015-12-02 09:25:31,863 - Velocimacro : autoload off  : VM system will not automatically reload global library macros
2015-12-02 09:25:31,863 - Velocimacro : initialization complete.
2015-12-02 09:25:31,863 - Velocity successfully started.
2015-12-02 09:25:33,847 - ResourceManager : found ru/ai/ccb/artifactGenerator/genutils/messages/named_script.vm with loader org.apache.velocity.runtime.resource.loader.ClasspathResourceLoader
2015-12-02 09:25:33,909 - ResourceManager : found ru/ai/ccb/artifactGenerator/genutils/messages/NamedMessages.vm with loader org.apache.velocity.runtime.resource.loader.ClasspathResourceLoader
2015-12-02 09:25:33,925 - ResourceManager : found ru/ai/ccb/artifactGenerator/batch/batch_script.vm with loader org.apache.velocity.runtime.resource.loader.ClasspathResourceLoader
2015-12-02 09:25:33,941 - ResourceManager : found ru/ai/ccb/artifactGenerator/features/feature_script.vm with loader org.apache.velocity.runtime.resource.loader.ClasspathResourceLoader
2015-12-03 23:08:47,879 - SimpleLog4JLogSystem initialized using logfile 'velocity.log'
2015-12-03 23:08:47,879 - ************************************************************** 
2015-12-03 23:08:47,879 - Starting Jakarta Velocity v1.4
2015-12-03 23:08:47,879 - RuntimeInstance initializing.
2015-12-03 23:08:47,879 - Default Properties File: org\apache\velocity\runtime\defaults\velocity.properties
2015-12-03 23:08:47,879 - Trying to use logger class org.apache.velocity.runtime.log.AvalonLogSystem
2015-12-03 23:08:47,879 - Couldn't find class org.apache.velocity.runtime.log.AvalonLogSystem or necessary supporting classes in classpath. Exception : java.lang.NoClassDefFoundError: org/apache/log/format/Formatter
2015-12-03 23:08:47,879 - Trying to use logger class org.apache.velocity.runtime.log.SimpleLog4JLogSystem
2015-12-03 23:08:47,879 - Using logger class org.apache.velocity.runtime.log.SimpleLog4JLogSystem
2015-12-03 23:08:47,879 - Default ResourceManager initializing. (class org.apache.velocity.runtime.resource.ResourceManagerImpl)
2015-12-03 23:08:47,879 - Resource Loader Instantiated: org.apache.velocity.runtime.resource.loader.ClasspathResourceLoader
2015-12-03 23:08:47,879 - ClasspathResourceLoader : initialization starting.
2015-12-03 23:08:47,879 - ClasspathResourceLoader : initialization complete.
2015-12-03 23:08:47,879 - ResourceCache : initialized. (class org.apache.velocity.runtime.resource.ResourceCacheImpl)
2015-12-03 23:08:47,879 - Default ResourceManager initialization complete.
2015-12-03 23:08:47,879 - Loaded System Directive: org.apache.velocity.runtime.directive.Literal
2015-12-03 23:08:47,879 - Loaded System Directive: org.apache.velocity.runtime.directive.Macro
2015-12-03 23:08:47,879 - Loaded System Directive: org.apache.velocity.runtime.directive.Parse
2015-12-03 23:08:47,879 - Loaded System Directive: org.apache.velocity.runtime.directive.Include
2015-12-03 23:08:47,879 - Loaded System Directive: org.apache.velocity.runtime.directive.Foreach
2015-12-03 23:08:47,910 - Created: 20 parsers.
2015-12-03 23:08:47,910 - Velocimacro : initialization starting.
2015-12-03 23:08:47,910 - Velocimacro : allowInline = true : VMs can be defined inline in templates
2015-12-03 23:08:47,910 - Velocimacro : allowInlineToOverride = false : VMs defined inline may NOT replace previous VM definitions
2015-12-03 23:08:47,910 - Velocimacro : allowInlineLocal = false : VMs defined inline will be  global in scope if allowed.
2015-12-03 23:08:47,910 - Velocimacro : messages on  : VM system will output logging messages
2015-12-03 23:08:47,910 - Velocimacro : autoload off  : VM system will not automatically reload global library macros
2015-12-03 23:08:47,910 - Velocimacro : initialization complete.
2015-12-03 23:08:47,910 - Velocity successfully started.
2015-12-03 23:08:50,019 - ResourceManager : found ru/ai/ccb/artifactGenerator/genutils/messages/named_script.vm with loader org.apache.velocity.runtime.resource.loader.ClasspathResourceLoader
2015-12-03 23:08:50,050 - ResourceManager : found ru/ai/ccb/artifactGenerator/genutils/messages/NamedMessages.vm with loader org.apache.velocity.runtime.resource.loader.ClasspathResourceLoader
2015-12-03 23:08:50,066 - ResourceManager : found ru/ai/ccb/artifactGenerator/batch/batch_script.vm with loader org.apache.velocity.runtime.resource.loader.ClasspathResourceLoader
2015-12-03 23:08:50,081 - ResourceManager : found ru/ai/ccb/artifactGenerator/features/feature_script.vm with loader org.apache.velocity.runtime.resource.loader.ClasspathResourceLoader
2015-12-03 23:40:43,946 - SimpleLog4JLogSystem initialized using logfile 'velocity.log'
2015-12-03 23:40:43,946 - ************************************************************** 
2015-12-03 23:40:43,946 - Starting Jakarta Velocity v1.4
2015-12-03 23:40:43,946 - RuntimeInstance initializing.
2015-12-03 23:40:43,946 - Default Properties File: org\apache\velocity\runtime\defaults\velocity.properties
2015-12-03 23:40:43,946 - Trying to use logger class org.apache.velocity.runtime.log.AvalonLogSystem
2015-12-03 23:40:43,946 - Couldn't find class org.apache.velocity.runtime.log.AvalonLogSystem or necessary supporting classes in classpath. Exception : java.lang.NoClassDefFoundError: org/apache/log/format/Formatter
2015-12-03 23:40:43,946 - Trying to use logger class org.apache.velocity.runtime.log.SimpleLog4JLogSystem
2015-12-03 23:40:43,946 - Using logger class org.apache.velocity.runtime.log.SimpleLog4JLogSystem
2015-12-03 23:40:43,962 - Default ResourceManager initializing. (class org.apache.velocity.runtime.resource.ResourceManagerImpl)
2015-12-03 23:40:43,962 - Resource Loader Instantiated: org.apache.velocity.runtime.resource.loader.ClasspathResourceLoader
2015-12-03 23:40:43,962 - ClasspathResourceLoader : initialization starting.
2015-12-03 23:40:43,962 - ClasspathResourceLoader : initialization complete.
2015-12-03 23:40:43,962 - ResourceCache : initialized. (class org.apache.velocity.runtime.resource.ResourceCacheImpl)
2015-12-03 23:40:43,962 - Default ResourceManager initialization complete.
2015-12-03 23:40:43,962 - Loaded System Directive: org.apache.velocity.runtime.directive.Literal
2015-12-03 23:40:43,962 - Loaded System Directive: org.apache.velocity.runtime.directive.Macro
2015-12-03 23:40:43,962 - Loaded System Directive: org.apache.velocity.runtime.directive.Parse
2015-12-03 23:40:43,962 - Loaded System Directive: org.apache.velocity.runtime.directive.Include
2015-12-03 23:40:43,962 - Loaded System Directive: org.apache.velocity.runtime.directive.Foreach
2015-12-03 23:40:43,993 - Created: 20 parsers.
2015-12-03 23:40:43,993 - Velocimacro : initialization starting.
2015-12-03 23:40:43,993 - Velocimacro : allowInline = true : VMs can be defined inline in templates
2015-12-03 23:40:43,993 - Velocimacro : allowInlineToOverride = false : VMs defined inline may NOT replace previous VM definitions
2015-12-03 23:40:43,993 - Velocimacro : allowInlineLocal = false : VMs defined inline will be  global in scope if allowed.
2015-12-03 23:40:43,993 - Velocimacro : messages on  : VM system will output logging messages
2015-12-03 23:40:43,993 - Velocimacro : autoload off  : VM system will not automatically reload global library macros
2015-12-03 23:40:43,993 - Velocimacro : initialization complete.
2015-12-03 23:40:43,993 - Velocity successfully started.
2015-12-03 23:40:46,630 - ResourceManager : found ru/ai/ccb/artifactGenerator/genutils/messages/named_script.vm with loader org.apache.velocity.runtime.resource.loader.ClasspathResourceLoader
2015-12-03 23:40:46,661 - ResourceManager : found ru/ai/ccb/artifactGenerator/genutils/messages/NamedMessages.vm with loader org.apache.velocity.runtime.resource.loader.ClasspathResourceLoader
2015-12-03 23:40:46,677 - ResourceManager : found ru/ai/ccb/artifactGenerator/batch/batch_script.vm with loader org.apache.velocity.runtime.resource.loader.ClasspathResourceLoader
2015-12-03 23:40:46,693 - ResourceManager : found ru/ai/ccb/artifactGenerator/features/feature_script.vm with loader org.apache.velocity.runtime.resource.loader.ClasspathResourceLoader
2015-12-04 16:49:59,594 - SimpleLog4JLogSystem initialized using logfile 'velocity.log'
2015-12-04 16:49:59,595 - ************************************************************** 
2015-12-04 16:49:59,595 - Starting Jakarta Velocity v1.4
2015-12-04 16:49:59,595 - RuntimeInstance initializing.
2015-12-04 16:49:59,595 - Default Properties File: org\apache\velocity\runtime\defaults\velocity.properties
2015-12-04 16:49:59,595 - Trying to use logger class org.apache.velocity.runtime.log.AvalonLogSystem
2015-12-04 16:49:59,595 - Couldn't find class org.apache.velocity.runtime.log.AvalonLogSystem or necessary supporting classes in classpath. Exception : java.lang.NoClassDefFoundError: org/apache/log/format/Formatter
2015-12-04 16:49:59,595 - Trying to use logger class org.apache.velocity.runtime.log.SimpleLog4JLogSystem
2015-12-04 16:49:59,595 - Using logger class org.apache.velocity.runtime.log.SimpleLog4JLogSystem
2015-12-04 16:49:59,597 - Default ResourceManager initializing. (class org.apache.velocity.runtime.resource.ResourceManagerImpl)
2015-12-04 16:49:59,603 - Resource Loader Instantiated: org.apache.velocity.runtime.resource.loader.ClasspathResourceLoader
2015-12-04 16:49:59,603 - ClasspathResourceLoader : initialization starting.
2015-12-04 16:49:59,603 - ClasspathResourceLoader : initialization complete.
2015-12-04 16:49:59,604 - ResourceCache : initialized. (class org.apache.velocity.runtime.resource.ResourceCacheImpl)
2015-12-04 16:49:59,604 - Default ResourceManager initialization complete.
2015-12-04 16:49:59,605 - Loaded System Directive: org.apache.velocity.runtime.directive.Literal
2015-12-04 16:49:59,607 - Loaded System Directive: org.apache.velocity.runtime.directive.Macro
2015-12-04 16:49:59,608 - Loaded System Directive: org.apache.velocity.runtime.directive.Parse
2015-12-04 16:49:59,610 - Loaded System Directive: org.apache.velocity.runtime.directive.Include
2015-12-04 16:49:59,610 - Loaded System Directive: org.apache.velocity.runtime.directive.Foreach
2015-12-04 16:49:59,634 - Created: 20 parsers.
2015-12-04 16:49:59,639 - Velocimacro : initialization starting.
2015-12-04 16:49:59,639 - Velocimacro : allowInline = true : VMs can be defined inline in templates
2015-12-04 16:49:59,639 - Velocimacro : allowInlineToOverride = false : VMs defined inline may NOT replace previous VM definitions
2015-12-04 16:49:59,639 - Velocimacro : allowInlineLocal = false : VMs defined inline will be  global in scope if allowed.
2015-12-04 16:49:59,639 - Velocimacro : messages on  : VM system will output logging messages
2015-12-04 16:49:59,639 - Velocimacro : autoload off  : VM system will not automatically reload global library macros
2015-12-04 16:49:59,639 - Velocimacro : initialization complete.
2015-12-04 16:49:59,639 - Velocity successfully started.
2015-12-04 16:51:56,161 - SimpleLog4JLogSystem initialized using logfile 'velocity.log'
2015-12-04 16:51:56,161 - ************************************************************** 
2015-12-04 16:51:56,161 - Starting Jakarta Velocity v1.4
2015-12-04 16:51:56,162 - RuntimeInstance initializing.
2015-12-04 16:51:56,162 - Default Properties File: org\apache\velocity\runtime\defaults\velocity.properties
2015-12-04 16:51:56,162 - Trying to use logger class org.apache.velocity.runtime.log.AvalonLogSystem
2015-12-04 16:51:56,162 - Couldn't find class org.apache.velocity.runtime.log.AvalonLogSystem or necessary supporting classes in classpath. Exception : java.lang.NoClassDefFoundError: org/apache/log/format/Formatter
2015-12-04 16:51:56,162 - Trying to use logger class org.apache.velocity.runtime.log.SimpleLog4JLogSystem
2015-12-04 16:51:56,162 - Using logger class org.apache.velocity.runtime.log.SimpleLog4JLogSystem
2015-12-04 16:51:56,164 - Default ResourceManager initializing. (class org.apache.velocity.runtime.resource.ResourceManagerImpl)
2015-12-04 16:51:56,166 - Resource Loader Instantiated: org.apache.velocity.runtime.resource.loader.ClasspathResourceLoader
2015-12-04 16:51:56,166 - ClasspathResourceLoader : initialization starting.
2015-12-04 16:51:56,166 - ClasspathResourceLoader : initialization complete.
2015-12-04 16:51:56,167 - ResourceCache : initialized. (class org.apache.velocity.runtime.resource.ResourceCacheImpl)
2015-12-04 16:51:56,167 - Default ResourceManager initialization complete.
2015-12-04 16:51:56,168 - Loaded System Directive: org.apache.velocity.runtime.directive.Literal
2015-12-04 16:51:56,169 - Loaded System Directive: org.apache.velocity.runtime.directive.Macro
2015-12-04 16:51:56,171 - Loaded System Directive: org.apache.velocity.runtime.directive.Parse
2015-12-04 16:51:56,172 - Loaded System Directive: org.apache.velocity.runtime.directive.Include
2015-12-04 16:51:56,173 - Loaded System Directive: org.apache.velocity.runtime.directive.Foreach
2015-12-04 16:51:56,196 - Created: 20 parsers.
2015-12-04 16:51:56,201 - Velocimacro : initialization starting.
2015-12-04 16:51:56,201 - Velocimacro : allowInline = true : VMs can be defined inline in templates
2015-12-04 16:51:56,201 - Velocimacro : allowInlineToOverride = false : VMs defined inline may NOT replace previous VM definitions
2015-12-04 16:51:56,201 - Velocimacro : allowInlineLocal = false : VMs defined inline will be  global in scope if allowed.
2015-12-04 16:51:56,201 - Velocimacro : messages on  : VM system will output logging messages
2015-12-04 16:51:56,201 - Velocimacro : autoload off  : VM system will not automatically reload global library macros
2015-12-04 16:51:56,201 - Velocimacro : initialization complete.
2015-12-04 16:51:56,201 - Velocity successfully started.
2015-12-04 16:52:45,810 - SimpleLog4JLogSystem initialized using logfile 'velocity.log'
2015-12-04 16:52:45,811 - ************************************************************** 
2015-12-04 16:52:45,811 - Starting Jakarta Velocity v1.4
2015-12-04 16:52:45,811 - RuntimeInstance initializing.
2015-12-04 16:52:45,811 - Default Properties File: org\apache\velocity\runtime\defaults\velocity.properties
2015-12-04 16:52:45,811 - Trying to use logger class org.apache.velocity.runtime.log.AvalonLogSystem
2015-12-04 16:52:45,811 - Couldn't find class org.apache.velocity.runtime.log.AvalonLogSystem or necessary supporting classes in classpath. Exception : java.lang.NoClassDefFoundError: org/apache/log/format/Formatter
2015-12-04 16:52:45,811 - Trying to use logger class org.apache.velocity.runtime.log.SimpleLog4JLogSystem
2015-12-04 16:52:45,811 - Using logger class org.apache.velocity.runtime.log.SimpleLog4JLogSystem
2015-12-04 16:52:45,813 - Default ResourceManager initializing. (class org.apache.velocity.runtime.resource.ResourceManagerImpl)
2015-12-04 16:52:45,815 - Resource Loader Instantiated: org.apache.velocity.runtime.resource.loader.ClasspathResourceLoader
2015-12-04 16:52:45,815 - ClasspathResourceLoader : initialization starting.
2015-12-04 16:52:45,815 - ClasspathResourceLoader : initialization complete.
2015-12-04 16:52:45,816 - ResourceCache : initialized. (class org.apache.velocity.runtime.resource.ResourceCacheImpl)
2015-12-04 16:52:45,816 - Default ResourceManager initialization complete.
2015-12-04 16:52:45,817 - Loaded System Directive: org.apache.velocity.runtime.directive.Literal
2015-12-04 16:52:45,818 - Loaded System Directive: org.apache.velocity.runtime.directive.Macro
2015-12-04 16:52:45,820 - Loaded System Directive: org.apache.velocity.runtime.directive.Parse
2015-12-04 16:52:45,821 - Loaded System Directive: org.apache.velocity.runtime.directive.Include
2015-12-04 16:52:45,822 - Loaded System Directive: org.apache.velocity.runtime.directive.Foreach
2015-12-04 16:52:45,846 - Created: 20 parsers.
2015-12-04 16:52:45,850 - Velocimacro : initialization starting.
2015-12-04 16:52:45,850 - Velocimacro : allowInline = true : VMs can be defined inline in templates
2015-12-04 16:52:45,850 - Velocimacro : allowInlineToOverride = false : VMs defined inline may NOT replace previous VM definitions
2015-12-04 16:52:45,850 - Velocimacro : allowInlineLocal = false : VMs defined inline will be  global in scope if allowed.
2015-12-04 16:52:45,850 - Velocimacro : messages on  : VM system will output logging messages
2015-12-04 16:52:45,850 - Velocimacro : autoload off  : VM system will not automatically reload global library macros
2015-12-04 16:52:45,850 - Velocimacro : initialization complete.
2015-12-04 16:52:45,850 - Velocity successfully started.
2015-12-04 16:54:02,034 - SimpleLog4JLogSystem initialized using logfile 'velocity.log'
2015-12-04 16:54:02,035 - ************************************************************** 
2015-12-04 16:54:02,035 - Starting Jakarta Velocity v1.4
2015-12-04 16:54:02,035 - RuntimeInstance initializing.
2015-12-04 16:54:02,035 - Default Properties File: org\apache\velocity\runtime\defaults\velocity.properties
2015-12-04 16:54:02,035 - Trying to use logger class org.apache.velocity.runtime.log.AvalonLogSystem
2015-12-04 16:54:02,035 - Couldn't find class org.apache.velocity.runtime.log.AvalonLogSystem or necessary supporting classes in classpath. Exception : java.lang.NoClassDefFoundError: org/apache/log/format/Formatter
2015-12-04 16:54:02,035 - Trying to use logger class org.apache.velocity.runtime.log.SimpleLog4JLogSystem
2015-12-04 16:54:02,035 - Using logger class org.apache.velocity.runtime.log.SimpleLog4JLogSystem
2015-12-04 16:54:02,037 - Default ResourceManager initializing. (class org.apache.velocity.runtime.resource.ResourceManagerImpl)
2015-12-04 16:54:02,039 - Resource Loader Instantiated: org.apache.velocity.runtime.resource.loader.ClasspathResourceLoader
2015-12-04 16:54:02,039 - ClasspathResourceLoader : initialization starting.
2015-12-04 16:54:02,039 - ClasspathResourceLoader : initialization complete.
2015-12-04 16:54:02,040 - ResourceCache : initialized. (class org.apache.velocity.runtime.resource.ResourceCacheImpl)
2015-12-04 16:54:02,040 - Default ResourceManager initialization complete.
2015-12-04 16:54:02,041 - Loaded System Directive: org.apache.velocity.runtime.directive.Literal
2015-12-04 16:54:02,043 - Loaded System Directive: org.apache.velocity.runtime.directive.Macro
2015-12-04 16:54:02,044 - Loaded System Directive: org.apache.velocity.runtime.directive.Parse
2015-12-04 16:54:02,046 - Loaded System Directive: org.apache.velocity.runtime.directive.Include
2015-12-04 16:54:02,046 - Loaded System Directive: org.apache.velocity.runtime.directive.Foreach
2015-12-04 16:54:02,070 - Created: 20 parsers.
2015-12-04 16:54:02,074 - Velocimacro : initialization starting.
2015-12-04 16:54:02,074 - Velocimacro : allowInline = true : VMs can be defined inline in templates
2015-12-04 16:54:02,074 - Velocimacro : allowInlineToOverride = false : VMs defined inline may NOT replace previous VM definitions
2015-12-04 16:54:02,074 - Velocimacro : allowInlineLocal = false : VMs defined inline will be  global in scope if allowed.
2015-12-04 16:54:02,074 - Velocimacro : messages on  : VM system will output logging messages
2015-12-04 16:54:02,075 - Velocimacro : autoload off  : VM system will not automatically reload global library macros
2015-12-04 16:54:02,075 - Velocimacro : initialization complete.
2015-12-04 16:54:02,075 - Velocity successfully started.
2015-12-04 16:59:37,626 - SimpleLog4JLogSystem initialized using logfile 'velocity.log'
2015-12-04 16:59:37,626 - ************************************************************** 
2015-12-04 16:59:37,626 - Starting Jakarta Velocity v1.4
2015-12-04 16:59:37,626 - RuntimeInstance initializing.
2015-12-04 16:59:37,626 - Default Properties File: org\apache\velocity\runtime\defaults\velocity.properties
2015-12-04 16:59:37,626 - Trying to use logger class org.apache.velocity.runtime.log.AvalonLogSystem
2015-12-04 16:59:37,626 - Couldn't find class org.apache.velocity.runtime.log.AvalonLogSystem or necessary supporting classes in classpath. Exception : java.lang.NoClassDefFoundError: org/apache/log/format/Formatter
2015-12-04 16:59:37,626 - Trying to use logger class org.apache.velocity.runtime.log.SimpleLog4JLogSystem
2015-12-04 16:59:37,626 - Using logger class org.apache.velocity.runtime.log.SimpleLog4JLogSystem
2015-12-04 16:59:37,626 - Default ResourceManager initializing. (class org.apache.velocity.runtime.resource.ResourceManagerImpl)
2015-12-04 16:59:37,626 - Resource Loader Instantiated: org.apache.velocity.runtime.resource.loader.ClasspathResourceLoader
2015-12-04 16:59:37,626 - ClasspathResourceLoader : initialization starting.
2015-12-04 16:59:37,626 - ClasspathResourceLoader : initialization complete.
2015-12-04 16:59:37,626 - ResourceCache : initialized. (class org.apache.velocity.runtime.resource.ResourceCacheImpl)
2015-12-04 16:59:37,626 - Default ResourceManager initialization complete.
2015-12-04 16:59:37,626 - Loaded System Directive: org.apache.velocity.runtime.directive.Literal
2015-12-04 16:59:37,626 - Loaded System Directive: org.apache.velocity.runtime.directive.Macro
2015-12-04 16:59:37,626 - Loaded System Directive: org.apache.velocity.runtime.directive.Parse
2015-12-04 16:59:37,641 - Loaded System Directive: org.apache.velocity.runtime.directive.Include
2015-12-04 16:59:37,641 - Loaded System Directive: org.apache.velocity.runtime.directive.Foreach
2015-12-04 16:59:37,657 - Created: 20 parsers.
2015-12-04 16:59:37,657 - Velocimacro : initialization starting.
2015-12-04 16:59:37,657 - Velocimacro : allowInline = true : VMs can be defined inline in templates
2015-12-04 16:59:37,657 - Velocimacro : allowInlineToOverride = false : VMs defined inline may NOT replace previous VM definitions
2015-12-04 16:59:37,672 - Velocimacro : allowInlineLocal = false : VMs defined inline will be  global in scope if allowed.
2015-12-04 16:59:37,672 - Velocimacro : messages on  : VM system will output logging messages
2015-12-04 16:59:37,672 - Velocimacro : autoload off  : VM system will not automatically reload global library macros
2015-12-04 16:59:37,672 - Velocimacro : initialization complete.
2015-12-04 16:59:37,672 - Velocity successfully started.
2015-12-04 17:01:31,122 - SimpleLog4JLogSystem initialized using logfile 'velocity.log'
2015-12-04 17:01:31,122 - ************************************************************** 
2015-12-04 17:01:31,122 - Starting Jakarta Velocity v1.4
2015-12-04 17:01:31,122 - RuntimeInstance initializing.
2015-12-04 17:01:31,122 - Default Properties File: org\apache\velocity\runtime\defaults\velocity.properties
2015-12-04 17:01:31,122 - Trying to use logger class org.apache.velocity.runtime.log.AvalonLogSystem
2015-12-04 17:01:31,122 - Couldn't find class org.apache.velocity.runtime.log.AvalonLogSystem or necessary supporting classes in classpath. Exception : java.lang.NoClassDefFoundError: org/apache/log/format/Formatter
2015-12-04 17:01:31,122 - Trying to use logger class org.apache.velocity.runtime.log.SimpleLog4JLogSystem
2015-12-04 17:01:31,122 - Using logger class org.apache.velocity.runtime.log.SimpleLog4JLogSystem
2015-12-04 17:01:31,122 - Default ResourceManager initializing. (class org.apache.velocity.runtime.resource.ResourceManagerImpl)
2015-12-04 17:01:31,137 - Resource Loader Instantiated: org.apache.velocity.runtime.resource.loader.ClasspathResourceLoader
2015-12-04 17:01:31,137 - ClasspathResourceLoader : initialization starting.
2015-12-04 17:01:31,137 - ClasspathResourceLoader : initialization complete.
2015-12-04 17:01:31,137 - ResourceCache : initialized. (class org.apache.velocity.runtime.resource.ResourceCacheImpl)
2015-12-04 17:01:31,137 - Default ResourceManager initialization complete.
2015-12-04 17:01:31,137 - Loaded System Directive: org.apache.velocity.runtime.directive.Literal
2015-12-04 17:01:31,137 - Loaded System Directive: org.apache.velocity.runtime.directive.Macro
2015-12-04 17:01:31,137 - Loaded System Directive: org.apache.velocity.runtime.directive.Parse
2015-12-04 17:01:31,137 - Loaded System Directive: org.apache.velocity.runtime.directive.Include
2015-12-04 17:01:31,137 - Loaded System Directive: org.apache.velocity.runtime.directive.Foreach
2015-12-04 17:01:31,169 - Created: 20 parsers.
2015-12-04 17:01:31,169 - Velocimacro : initialization starting.
2015-12-04 17:01:31,169 - Velocimacro : allowInline = true : VMs can be defined inline in templates
2015-12-04 17:01:31,169 - Velocimacro : allowInlineToOverride = false : VMs defined inline may NOT replace previous VM definitions
2015-12-04 17:01:31,169 - Velocimacro : allowInlineLocal = false : VMs defined inline will be  global in scope if allowed.
2015-12-04 17:01:31,169 - Velocimacro : messages on  : VM system will output logging messages
2015-12-04 17:01:31,169 - Velocimacro : autoload off  : VM system will not automatically reload global library macros
2015-12-04 17:01:31,169 - Velocimacro : initialization complete.
2015-12-04 17:01:31,169 - Velocity successfully started.
2015-12-04 17:02:11,403 - SimpleLog4JLogSystem initialized using logfile 'velocity.log'
2015-12-04 17:02:11,403 - ************************************************************** 
2015-12-04 17:02:11,403 - Starting Jakarta Velocity v1.4
2015-12-04 17:02:11,403 - RuntimeInstance initializing.
2015-12-04 17:02:11,403 - Default Properties File: org\apache\velocity\runtime\defaults\velocity.properties
2015-12-04 17:02:11,403 - Trying to use logger class org.apache.velocity.runtime.log.AvalonLogSystem
2015-12-04 17:02:11,403 - Couldn't find class org.apache.velocity.runtime.log.AvalonLogSystem or necessary supporting classes in classpath. Exception : java.lang.NoClassDefFoundError: org/apache/log/format/Formatter
2015-12-04 17:02:11,403 - Trying to use logger class org.apache.velocity.runtime.log.SimpleLog4JLogSystem
2015-12-04 17:02:11,403 - Using logger class org.apache.velocity.runtime.log.SimpleLog4JLogSystem
2015-12-04 17:02:11,403 - Default ResourceManager initializing. (class org.apache.velocity.runtime.resource.ResourceManagerImpl)
2015-12-04 17:02:11,403 - Resource Loader Instantiated: org.apache.velocity.runtime.resource.loader.ClasspathResourceLoader
2015-12-04 17:02:11,403 - ClasspathResourceLoader : initialization starting.
2015-12-04 17:02:11,403 - ClasspathResourceLoader : initialization complete.
2015-12-04 17:02:11,403 - ResourceCache : initialized. (class org.apache.velocity.runtime.resource.ResourceCacheImpl)
2015-12-04 17:02:11,403 - Default ResourceManager initialization complete.
2015-12-04 17:02:11,403 - Loaded System Directive: org.apache.velocity.runtime.directive.Literal
2015-12-04 17:02:11,403 - Loaded System Directive: org.apache.velocity.runtime.directive.Macro
2015-12-04 17:02:11,403 - Loaded System Directive: org.apache.velocity.runtime.directive.Parse
2015-12-04 17:02:11,403 - Loaded System Directive: org.apache.velocity.runtime.directive.Include
2015-12-04 17:02:11,403 - Loaded System Directive: org.apache.velocity.runtime.directive.Foreach
2015-12-04 17:02:11,434 - Created: 20 parsers.
2015-12-04 17:02:11,434 - Velocimacro : initialization starting.
2015-12-04 17:02:11,434 - Velocimacro : allowInline = true : VMs can be defined inline in templates
2015-12-04 17:02:11,434 - Velocimacro : allowInlineToOverride = false : VMs defined inline may NOT replace previous VM definitions
2015-12-04 17:02:11,434 - Velocimacro : allowInlineLocal = false : VMs defined inline will be  global in scope if allowed.
2015-12-04 17:02:11,434 - Velocimacro : messages on  : VM system will output logging messages
2015-12-04 17:02:11,434 - Velocimacro : autoload off  : VM system will not automatically reload global library macros
2015-12-04 17:02:11,434 - Velocimacro : initialization complete.
2015-12-04 17:02:11,434 - Velocity successfully started.
2015-12-04 17:04:17,111 - SimpleLog4JLogSystem initialized using logfile 'velocity.log'
2015-12-04 17:04:17,111 - ************************************************************** 
2015-12-04 17:04:17,111 - Starting Jakarta Velocity v1.4
2015-12-04 17:04:17,111 - RuntimeInstance initializing.
2015-12-04 17:04:17,111 - Default Properties File: org\apache\velocity\runtime\defaults\velocity.properties
2015-12-04 17:04:17,111 - Trying to use logger class org.apache.velocity.runtime.log.AvalonLogSystem
2015-12-04 17:04:17,111 - Couldn't find class org.apache.velocity.runtime.log.AvalonLogSystem or necessary supporting classes in classpath. Exception : java.lang.NoClassDefFoundError: org/apache/log/format/Formatter
2015-12-04 17:04:17,111 - Trying to use logger class org.apache.velocity.runtime.log.SimpleLog4JLogSystem
2015-12-04 17:04:17,111 - Using logger class org.apache.velocity.runtime.log.SimpleLog4JLogSystem
2015-12-04 17:04:17,111 - Default ResourceManager initializing. (class org.apache.velocity.runtime.resource.ResourceManagerImpl)
2015-12-04 17:04:17,111 - Resource Loader Instantiated: org.apache.velocity.runtime.resource.loader.ClasspathResourceLoader
2015-12-04 17:04:17,111 - ClasspathResourceLoader : initialization starting.
2015-12-04 17:04:17,111 - ClasspathResourceLoader : initialization complete.
2015-12-04 17:04:17,111 - ResourceCache : initialized. (class org.apache.velocity.runtime.resource.ResourceCacheImpl)
2015-12-04 17:04:17,111 - Default ResourceManager initialization complete.
2015-12-04 17:04:17,111 - Loaded System Directive: org.apache.velocity.runtime.directive.Literal
2015-12-04 17:04:17,127 - Loaded System Directive: org.apache.velocity.runtime.directive.Macro
2015-12-04 17:04:17,127 - Loaded System Directive: org.apache.velocity.runtime.directive.Parse
2015-12-04 17:04:17,127 - Loaded System Directive: org.apache.velocity.runtime.directive.Include
2015-12-04 17:04:17,127 - Loaded System Directive: org.apache.velocity.runtime.directive.Foreach
2015-12-04 17:04:17,142 - Created: 20 parsers.
2015-12-04 17:04:17,158 - Velocimacro : initialization starting.
2015-12-04 17:04:17,158 - Velocimacro : allowInline = true : VMs can be defined inline in templates
2015-12-04 17:04:17,158 - Velocimacro : allowInlineToOverride = false : VMs defined inline may NOT replace previous VM definitions
2015-12-04 17:04:17,158 - Velocimacro : allowInlineLocal = false : VMs defined inline will be  global in scope if allowed.
2015-12-04 17:04:17,158 - Velocimacro : messages on  : VM system will output logging messages
2015-12-04 17:04:17,158 - Velocimacro : autoload off  : VM system will not automatically reload global library macros
2015-12-04 17:04:17,158 - Velocimacro : initialization complete.
2015-12-04 17:04:17,158 - Velocity successfully started.
2015-12-04 17:06:07,517 - SimpleLog4JLogSystem initialized using logfile 'velocity.log'
2015-12-04 17:06:07,518 - ************************************************************** 
2015-12-04 17:06:07,518 - Starting Jakarta Velocity v1.4
2015-12-04 17:06:07,518 - RuntimeInstance initializing.
2015-12-04 17:06:07,518 - Default Properties File: org\apache\velocity\runtime\defaults\velocity.properties
2015-12-04 17:06:07,518 - Trying to use logger class org.apache.velocity.runtime.log.AvalonLogSystem
2015-12-04 17:06:07,518 - Couldn't find class org.apache.velocity.runtime.log.AvalonLogSystem or necessary supporting classes in classpath. Exception : java.lang.NoClassDefFoundError: org/apache/log/format/Formatter
2015-12-04 17:06:07,518 - Trying to use logger class org.apache.velocity.runtime.log.SimpleLog4JLogSystem
2015-12-04 17:06:07,518 - Using logger class org.apache.velocity.runtime.log.SimpleLog4JLogSystem
2015-12-04 17:06:07,520 - Default ResourceManager initializing. (class org.apache.velocity.runtime.resource.ResourceManagerImpl)
2015-12-04 17:06:07,522 - Resource Loader Instantiated: org.apache.velocity.runtime.resource.loader.ClasspathResourceLoader
2015-12-04 17:06:07,522 - ClasspathResourceLoader : initialization starting.
2015-12-04 17:06:07,522 - ClasspathResourceLoader : initialization complete.
2015-12-04 17:06:07,523 - ResourceCache : initialized. (class org.apache.velocity.runtime.resource.ResourceCacheImpl)
2015-12-04 17:06:07,523 - Default ResourceManager initialization complete.
2015-12-04 17:06:07,524 - Loaded System Directive: org.apache.velocity.runtime.directive.Literal
2015-12-04 17:06:07,526 - Loaded System Directive: org.apache.velocity.runtime.directive.Macro
2015-12-04 17:06:07,527 - Loaded System Directive: org.apache.velocity.runtime.directive.Parse
2015-12-04 17:06:07,528 - Loaded System Directive: org.apache.velocity.runtime.directive.Include
2015-12-04 17:06:07,529 - Loaded System Directive: org.apache.velocity.runtime.directive.Foreach
2015-12-04 17:06:07,553 - Created: 20 parsers.
2015-12-04 17:06:07,557 - Velocimacro : initialization starting.
2015-12-04 17:06:07,557 - Velocimacro : allowInline = true : VMs can be defined inline in templates
2015-12-04 17:06:07,557 - Velocimacro : allowInlineToOverride = false : VMs defined inline may NOT replace previous VM definitions
2015-12-04 17:06:07,558 - Velocimacro : allowInlineLocal = false : VMs defined inline will be  global in scope if allowed.
2015-12-04 17:06:07,558 - Velocimacro : messages on  : VM system will output logging messages
2015-12-04 17:06:07,558 - Velocimacro : autoload off  : VM system will not automatically reload global library macros
2015-12-04 17:06:07,558 - Velocimacro : initialization complete.
2015-12-04 17:06:07,558 - Velocity successfully started.
2015-12-04 17:09:53,789 - SimpleLog4JLogSystem initialized using logfile 'velocity.log'
2015-12-04 17:09:53,790 - ************************************************************** 
2015-12-04 17:09:53,790 - Starting Jakarta Velocity v1.4
2015-12-04 17:09:53,790 - RuntimeInstance initializing.
2015-12-04 17:09:53,790 - Default Properties File: org\apache\velocity\runtime\defaults\velocity.properties
2015-12-04 17:09:53,790 - Trying to use logger class org.apache.velocity.runtime.log.AvalonLogSystem
2015-12-04 17:09:53,790 - Couldn't find class org.apache.velocity.runtime.log.AvalonLogSystem or necessary supporting classes in classpath. Exception : java.lang.NoClassDefFoundError: org/apache/log/format/Formatter
2015-12-04 17:09:53,790 - Trying to use logger class org.apache.velocity.runtime.log.SimpleLog4JLogSystem
2015-12-04 17:09:53,790 - Using logger class org.apache.velocity.runtime.log.SimpleLog4JLogSystem
2015-12-04 17:09:53,792 - Default ResourceManager initializing. (class org.apache.velocity.runtime.resource.ResourceManagerImpl)
2015-12-04 17:09:53,794 - Resource Loader Instantiated: org.apache.velocity.runtime.resource.loader.ClasspathResourceLoader
2015-12-04 17:09:53,794 - ClasspathResourceLoader : initialization starting.
2015-12-04 17:09:53,794 - ClasspathResourceLoader : initialization complete.
2015-12-04 17:09:53,795 - ResourceCache : initialized. (class org.apache.velocity.runtime.resource.ResourceCacheImpl)
2015-12-04 17:09:53,795 - Default ResourceManager initialization complete.
2015-12-04 17:09:53,796 - Loaded System Directive: org.apache.velocity.runtime.directive.Literal
2015-12-04 17:09:53,798 - Loaded System Directive: org.apache.velocity.runtime.directive.Macro
2015-12-04 17:09:53,799 - Loaded System Directive: org.apache.velocity.runtime.directive.Parse
2015-12-04 17:09:53,800 - Loaded System Directive: org.apache.velocity.runtime.directive.Include
2015-12-04 17:09:53,801 - Loaded System Directive: org.apache.velocity.runtime.directive.Foreach
2015-12-04 17:09:53,825 - Created: 20 parsers.
2015-12-04 17:09:53,829 - Velocimacro : initialization starting.
2015-12-04 17:09:53,829 - Velocimacro : allowInline = true : VMs can be defined inline in templates
2015-12-04 17:09:53,830 - Velocimacro : allowInlineToOverride = false : VMs defined inline may NOT replace previous VM definitions
2015-12-04 17:09:53,830 - Velocimacro : allowInlineLocal = false : VMs defined inline will be  global in scope if allowed.
2015-12-04 17:09:53,830 - Velocimacro : messages on  : VM system will output logging messages
2015-12-04 17:09:53,830 - Velocimacro : autoload off  : VM system will not automatically reload global library macros
2015-12-04 17:09:53,830 - Velocimacro : initialization complete.
2015-12-04 17:09:53,830 - Velocity successfully started.
2015-12-04 17:09:56,448 - ResourceManager : found ru/ai/ccb/artifactGenerator/genutils/messages/named_script.vm with loader org.apache.velocity.runtime.resource.loader.ClasspathResourceLoader
2015-12-04 17:09:56,484 - ResourceManager : found ru/ai/ccb/artifactGenerator/genutils/messages/NamedMessages.vm with loader org.apache.velocity.runtime.resource.loader.ClasspathResourceLoader
2015-12-04 17:09:56,501 - ResourceManager : found ru/ai/ccb/artifactGenerator/batch/batch_script.vm with loader org.apache.velocity.runtime.resource.loader.ClasspathResourceLoader
2015-12-04 17:09:56,514 - ResourceManager : found ru/ai/ccb/artifactGenerator/features/feature_script.vm with loader org.apache.velocity.runtime.resource.loader.ClasspathResourceLoader
2015-12-05 13:20:20,355 - SimpleLog4JLogSystem initialized using logfile 'velocity.log'
2015-12-05 13:20:20,356 - ************************************************************** 
2015-12-05 13:20:20,356 - Starting Jakarta Velocity v1.4
2015-12-05 13:20:20,356 - RuntimeInstance initializing.
2015-12-05 13:20:20,356 - Default Properties File: org\apache\velocity\runtime\defaults\velocity.properties
2015-12-05 13:20:20,356 - Trying to use logger class org.apache.velocity.runtime.log.AvalonLogSystem
2015-12-05 13:20:20,356 - Couldn't find class org.apache.velocity.runtime.log.AvalonLogSystem or necessary supporting classes in classpath. Exception : java.lang.NoClassDefFoundError: org/apache/log/format/Formatter
2015-12-05 13:20:20,356 - Trying to use logger class org.apache.velocity.runtime.log.SimpleLog4JLogSystem
2015-12-05 13:20:20,356 - Using logger class org.apache.velocity.runtime.log.SimpleLog4JLogSystem
2015-12-05 13:20:20,358 - Default ResourceManager initializing. (class org.apache.velocity.runtime.resource.ResourceManagerImpl)
2015-12-05 13:20:20,360 - Resource Loader Instantiated: org.apache.velocity.runtime.resource.loader.ClasspathResourceLoader
2015-12-05 13:20:20,360 - ClasspathResourceLoader : initialization starting.
2015-12-05 13:20:20,360 - ClasspathResourceLoader : initialization complete.
2015-12-05 13:20:20,361 - ResourceCache : initialized. (class org.apache.velocity.runtime.resource.ResourceCacheImpl)
2015-12-05 13:20:20,361 - Default ResourceManager initialization complete.
2015-12-05 13:20:20,362 - Loaded System Directive: org.apache.velocity.runtime.directive.Literal
2015-12-05 13:20:20,364 - Loaded System Directive: org.apache.velocity.runtime.directive.Macro
2015-12-05 13:20:20,365 - Loaded System Directive: org.apache.velocity.runtime.directive.Parse
2015-12-05 13:20:20,374 - Loaded System Directive: org.apache.velocity.runtime.directive.Include
2015-12-05 13:20:20,375 - Loaded System Directive: org.apache.velocity.runtime.directive.Foreach
2015-12-05 13:20:20,399 - Created: 20 parsers.
2015-12-05 13:20:20,404 - Velocimacro : initialization starting.
2015-12-05 13:20:20,404 - Velocimacro : allowInline = true : VMs can be defined inline in templates
2015-12-05 13:20:20,404 - Velocimacro : allowInlineToOverride = false : VMs defined inline may NOT replace previous VM definitions
2015-12-05 13:20:20,404 - Velocimacro : allowInlineLocal = false : VMs defined inline will be  global in scope if allowed.
2015-12-05 13:20:20,404 - Velocimacro : messages on  : VM system will output logging messages
2015-12-05 13:20:20,404 - Velocimacro : autoload off  : VM system will not automatically reload global library macros
2015-12-05 13:20:20,404 - Velocimacro : initialization complete.
2015-12-05 13:20:20,404 - Velocity successfully started.
